<svg width="64" height="64" viewBox="0 0 64 64" fill="none" xmlns="http://www.w3.org/2000/svg">
<circle cx="32" cy="32" r="32" fill="#629215"/>
<mask id="mask0" mask-type="alpha" maskUnits="userSpaceOnUse" x="0" y="0" width="64" height="64">
<circle cx="32" cy="32" r="32" fill="#629215"/>
</mask>
<g mask="url(#mask0)">
<path fill-rule="evenodd" clip-rule="evenodd" d="M25.6902 41.3495L24.8717 43.3738L25.3226 49.7901L25.6582 49.8424C29.2023 50.392 31.6106 50.6696 32.883 50.6753L32.9224 50.6754C34.2038 50.6754 35.7393 50.389 37.5289 49.8164L37.6104 49.7901L37.817 44.9857H37.3298L36.4485 42.9188L36.4493 42.9181C36.459 42.9347 36.4691 42.9508 36.4796 42.9663C36.8471 43.51 37.06 43.0709 37.9232 43.2632C38.9567 43.4934 39.4155 44.5384 40.3254 45.3193C40.7478 45.6819 41.6345 45.8528 42.0588 46.102L42.5045 46.364C43.9011 47.1881 45.5063 48.1891 46.3492 49.4932C47.3372 51.0219 48.0182 52.4727 48.6471 54.1733C50.0026 57.8389 50.9435 61.5794 51.6158 65.4261C52.2973 69.3249 52.7068 73.272 53.0196 77.216C53.1644 79.0437 53.2873 80.873 53.3893 82.7035L53.4143 83.1612C53.4679 84.1572 53.4214 85.1318 52.5161 85.7451C51.8675 86.1845 51.0068 86.2514 50.2458 86.2965L50.2044 86.2989C44.5784 86.629 38.9523 86.9566 33.3262 87.285L24.8872 87.7786C23.4831 87.8609 22.0789 87.9426 20.6747 88.0238L17.2472 88.2219C15.6317 88.3138 14.0143 88.3934 12.3967 88.384C10.3616 88.3721 8.33508 88.2218 6.31869 87.9504L6.1408 87.9262C4.87221 87.7509 3.03282 87.3076 2.80496 85.7856C2.77224 85.5671 2.96452 85.4306 3.12595 85.4619C3.07283 85.2142 3.03985 84.9661 3.00834 84.7506C2.87313 83.8297 2.78823 82.9029 2.74628 81.9731C2.66212 80.1127 2.73304 78.2436 2.91896 76.3913C3.22653 73.3268 3.65769 70.2677 4.1032 67.2192L4.20239 66.5419C4.67626 63.3122 5.24044 60.0878 6.12327 56.9417C6.9388 54.0355 8.21105 51.0121 9.96164 49.1744C11.7122 47.3366 14.2082 45.74 16.7729 44.762C16.995 44.6773 21.4078 43.7108 21.7051 43.8515L21.7585 43.8097C22.6383 43.1148 23.8934 41.8943 25.1856 42.2786L25.1885 42.2738C25.219 42.2177 25.3384 41.8428 25.5033 41.3495L25.6902 41.3495Z" fill="#8FA7DF"/>
<path fill-rule="evenodd" clip-rule="evenodd" d="M26.6236 38.6554C27.6924 37.2998 28.819 36.8689 30.4838 36.9699C31.6128 36.9295 32.7387 37.2227 33.6947 37.8702C34.5705 38.3281 35.3473 38.9584 35.9017 39.7697C36.3758 40.4633 36.0156 42.1773 36.4487 42.9189C36.4444 42.9996 36.4423 43.0732 36.4423 43.1397C36.4423 43.7814 36.8887 44.4976 37.7816 45.2881L37.8171 45.3194V49.9829C36.3159 50.4446 34.4574 50.6755 32.2414 50.6755C30.0586 50.6755 27.7881 50.3088 25.43 49.5755L25.3228 49.5419L24.8718 44.4736L25.3228 43.071L25.3227 41.8963L25.497 41.3708C25.8056 40.447 26.2779 39.0938 26.6236 38.6554Z" fill="#D08B5B"/>
<path fill-rule="evenodd" clip-rule="evenodd" d="M25.3226 49.5419C25.3226 49.5419 29.2862 50.6965 31.992 50.6965C34.6978 50.6965 37.6104 49.5419 37.6104 49.5419L37.1379 87.5507L29.5329 87.6437L25.3226 49.5419Z" fill="#9FD8E5"/>
<path fill-rule="evenodd" clip-rule="evenodd" d="M12.2753 66.1378C12.246 66.0829 12.3139 66.0336 12.359 66.0731C13.3835 66.9725 13.9198 68.4169 14.0323 69.7519C14.1515 71.1677 13.9825 72.6334 13.918 74.0485C13.8461 75.6248 13.7816 77.2017 13.6939 78.7772C13.6048 80.3757 13.5089 81.9737 13.4266 83.5725L13.2417 87.1691C13.222 87.5524 13.2646 88.0238 13.1176 88.3815C12.8897 88.936 12.2128 88.8502 12.0706 88.3867L12.0661 88.3714L12.0532 88.3815C11.9277 87.9638 12.0216 87.4677 12.0429 87.0358L12.2367 83.1063C12.3736 80.3288 12.4957 77.5513 12.6428 74.7743L12.6928 73.8487C12.7616 72.6026 12.8143 71.3597 12.8566 70.114L12.8704 69.6987C12.9106 68.4479 12.8787 67.2671 12.2753 66.1378ZM37.1096 43.0803C37.6804 43.0261 38.1113 43.2155 38.6295 43.4149C38.8552 43.5017 39.069 43.602 39.2855 43.7059C39.5566 43.8359 39.731 44.0659 39.8979 44.309L39.9872 44.44C40.6824 45.4589 41.15 46.6344 41.6777 47.7437C42.2949 49.0414 42.9183 50.3362 43.5223 51.64L43.8204 52.2824C43.9694 52.6036 44.118 52.925 44.2644 53.2474L44.5173 53.8085C44.7714 54.3776 44.9991 54.9796 44.637 55.5667C44.3003 56.1127 43.7034 56.5351 43.2307 56.9571C42.8364 57.3093 42.442 57.6614 42.0475 58.0135C42.8629 58.8304 43.4104 59.859 43.7322 60.9621C44.1894 60.7715 44.7474 60.735 45.2201 60.6525C45.8819 60.5372 45.9629 61.5393 45.3384 61.5271C44.8772 61.5181 44.3361 61.5652 43.863 61.468C43.9452 61.8305 44.0049 62.1984 44.0428 62.5674C44.2416 64.5013 43.8072 66.4464 43.3541 68.3175L43.3168 68.4711C42.8247 70.4964 42.3582 72.5269 41.9408 74.5689C41.5224 76.6153 41.1461 78.6703 40.8121 80.7321C40.4721 82.8308 40.2315 84.941 39.9729 87.0508C39.9338 87.3701 39.733 87.6437 39.3803 87.6437C39.0864 87.6437 38.7506 87.3694 38.7875 87.0508C39.0543 84.7533 39.4327 82.4678 39.8086 80.1861C40.4561 76.2566 41.271 72.3612 42.2086 68.4915L42.3723 67.8176C42.7941 66.0698 43.1768 64.2689 42.9652 62.4661C42.7929 60.9981 42.1793 59.4328 40.9667 58.521L40.9298 58.4936C40.6465 58.2858 40.5375 57.8884 40.8165 57.6147C40.994 57.4405 41.1718 57.2666 41.3496 57.0927L42.4171 56.0501L42.6323 55.8396C42.8118 55.6643 42.9921 55.4901 43.1778 55.3212C43.2902 55.2191 43.5949 55.0243 43.6172 54.8564C43.6317 54.7467 43.5019 54.5541 43.4493 54.4531L43.2084 53.9666C43.0715 53.6892 42.9389 53.4098 42.8053 53.1308C42.5285 52.5528 42.2477 51.9765 41.9768 51.3957L40.3497 47.9079C39.8907 46.924 39.4818 45.8852 38.8817 44.9755L38.7634 44.7982C38.6646 44.6489 38.5774 44.5052 38.515 44.3226C38.455 44.1469 38.3796 43.954 38.2687 43.8041C38.0088 43.4522 37.512 43.2527 37.0963 43.179C37.0362 43.1683 37.0581 43.0853 37.1096 43.0803ZM24.5954 42.1643C24.6315 42.1643 24.637 42.2159 24.6037 42.2259C24.1022 42.3768 23.623 42.6202 23.232 42.9716C23.0449 43.1397 22.8566 43.3305 22.7411 43.5568C22.6969 43.6435 22.6725 43.735 22.6546 43.8298L22.6488 43.8616C22.619 44.0329 22.5764 44.1283 22.4893 44.2656L22.4744 44.2888C21.9775 45.0564 21.6293 45.909 21.3109 46.7627L20.6176 48.624L19.9247 50.4856C19.7014 51.0854 19.478 51.6853 19.2547 52.2851C19.1314 52.6162 19.0045 52.946 18.8777 53.2758C18.8229 53.4187 18.7639 53.5605 18.7137 53.7051C18.7068 53.7249 18.6849 53.8439 18.6684 53.8728L18.674 53.8827C18.8138 54.1179 19.1865 54.3144 19.3978 54.4852L20.1252 55.0736C20.6439 55.4932 21.1759 55.901 21.679 56.3393C21.9951 56.6145 21.7984 57.1073 21.446 57.2222C20.8554 57.4147 20.2768 57.6451 19.695 57.8629C19.46 57.9508 19.2153 58.0274 18.983 58.1244L18.8416 58.1855C18.7864 58.2103 18.813 58.2101 18.8152 58.312C18.8174 58.419 18.8477 58.5304 18.8651 58.6355C19.061 59.8208 19.2688 61.004 19.488 62.1852C20.2635 66.3623 21.19 70.5088 22.2467 74.6234C22.7805 76.7013 23.3529 78.769 23.8983 80.8438C24.4424 82.913 25.1584 84.9527 25.8419 86.9793C26.0348 87.5508 25.1289 87.7969 24.9408 87.2278C24.153 84.8442 23.4322 82.4399 22.688 80.0428C21.3656 75.7835 20.3235 71.4318 19.4019 67.0695C18.9451 64.9075 18.5273 62.7371 18.1489 60.56C18.0773 60.1478 18.007 59.7354 17.9382 59.3228L17.8379 58.7158C17.7691 58.2831 17.73 57.8325 18.0662 57.4901C18.3944 57.1559 18.9579 57.0375 19.3898 56.8807L19.4212 56.8692C19.696 56.7666 19.9728 56.6677 20.2486 56.5658C19.8424 56.2459 19.4412 55.9189 19.036 55.5992C18.7091 55.3412 18.377 55.0885 18.0548 54.8247C17.7892 54.607 17.5726 54.3276 17.5449 53.9737C17.5166 53.612 17.6716 53.2763 17.7965 52.9446L17.8085 52.9125C17.9312 52.5813 18.0542 52.2503 18.1804 51.9203L18.9612 49.8777C19.4573 48.5798 19.9325 47.2714 20.4543 45.9836C20.6608 45.4739 20.8858 44.9723 21.1516 44.4905C21.2798 44.2582 21.4173 44.0309 21.5667 43.8116C21.7341 43.5657 21.886 43.4459 22.1454 43.3102C22.5601 43.0933 22.8856 42.7296 23.302 42.506C23.7108 42.2865 24.1314 42.1694 24.5954 42.1643ZM25.9417 39.8487C25.9576 39.8215 25.9996 39.8336 26.0001 39.8646C26.011 40.5097 25.8578 41.1688 25.7635 41.8066C25.6688 42.4467 25.6385 43.1224 25.5015 43.7556C25.4987 43.7851 25.493 43.8142 25.4849 43.8428L25.4784 43.8645C25.4206 44.0419 25.2702 44.1923 25.0858 44.2393C25.1438 44.5608 25.1984 44.8828 25.2444 45.2066C25.3234 45.7632 25.3954 46.3205 25.4663 46.8781L25.5511 47.5472C25.6312 48.1778 25.709 48.8087 25.786 49.4396C25.9819 49.5215 26.1817 49.5891 26.3864 49.6477C26.8577 49.7826 27.3404 49.8375 27.8268 49.8852C28.8173 49.9824 29.8154 50.0274 30.8094 50.0826L31.0224 50.0946C32.1399 50.1587 33.2635 50.17 34.3782 50.0553C34.9309 49.9984 35.4793 49.903 36.0184 49.7677C36.2922 49.699 36.5584 49.5963 36.8318 49.5291C36.9225 49.5069 37.0035 49.4555 37.0943 49.4006C37.1347 49.3496 37.1913 49.311 37.265 49.296L37.285 49.2926L37.3047 49.2897L37.3116 49.2866L37.311 49.2887C37.367 49.2812 37.4201 49.2812 37.4702 49.2881C37.4901 48.7962 37.5117 48.3042 37.5388 47.8125C37.6115 46.4916 37.8123 45.1137 37.5443 43.8043C37.5353 43.7603 37.5952 43.7447 37.6108 43.786C38.1367 45.1721 38.0776 46.6878 38.1041 48.1467C38.13 49.5734 38.1144 51.0011 38.1073 52.4281C38.2094 52.4716 38.3006 52.5306 38.3727 52.6133C38.5169 52.7786 38.5584 53.066 38.3727 53.2255C38.2905 53.2963 38.1994 53.3454 38.1028 53.3795C38.0977 54.6192 38.0889 55.859 38.0764 57.0988C38.3121 57.2809 38.3341 57.7133 38.0675 57.893C38.0232 61.9079 37.9503 65.9228 37.8898 69.9371L37.7631 78.3591C37.7462 79.4812 37.7183 80.6033 37.7082 81.7252L37.7162 81.7284L37.7442 81.7414C37.7914 81.7636 37.8617 81.7994 37.8763 81.8361C37.8801 81.8458 37.8811 81.8523 37.8806 81.8573C37.958 81.8681 38.0346 81.9047 38.1009 81.9676C38.2645 82.1231 38.2313 82.3576 38.1009 82.516L38.066 82.5583C37.9847 82.6571 37.8304 82.6951 37.7043 82.675C37.7056 83.3753 37.7101 84.0757 37.7079 84.7759C37.7072 84.9898 37.7039 85.2037 37.7002 85.4176L37.6914 85.9305C37.6856 86.2231 37.6597 86.595 37.36 86.7265C37.0219 86.8749 36.7188 86.7534 36.5819 86.4099C36.5449 86.3169 36.5528 86.2302 36.5663 86.1382C36.5621 86 36.5405 85.8399 36.5432 85.7116L36.5544 85.1769C36.5561 85.0945 36.5595 85.0121 36.5618 84.9296L36.552 84.9307C35.3508 84.989 34.1413 84.9605 32.9381 84.9598L32.403 84.9606C31.9565 84.961 31.5091 84.9586 31.0633 84.9415L30.8962 84.9344C30.5624 84.9187 30.2114 84.9137 29.8654 84.8839C29.9094 85.2392 29.9507 85.5948 29.9874 85.9507C30.0222 86.2882 29.674 86.575 29.3633 86.575C28.9944 86.575 28.7834 86.2849 28.7393 85.9507C28.5308 84.3741 28.4455 82.7829 28.2463 81.2053C28.0679 79.7923 27.9133 78.3762 27.756 76.9605L27.7035 76.4886C27.1281 71.3368 26.5695 66.183 26.0352 61.0268L25.7864 58.6164C25.5351 56.1869 25.2824 53.7573 25.0693 51.3243C24.9474 49.9332 24.835 48.542 24.7293 47.1496C24.6518 46.1267 24.6031 45.1094 24.5714 44.0885C24.4463 43.9598 24.3837 43.7719 24.4391 43.5778C24.4714 43.4646 24.5091 43.3519 24.5488 43.2395C24.5464 43.129 24.5438 43.0186 24.5416 42.9079C24.5396 42.8033 24.6458 42.7494 24.7309 42.7667C24.8854 42.3924 25.0556 42.0213 25.1976 41.6506C25.4275 41.0505 25.617 40.4039 25.9417 39.8487ZM13.1038 46.3341C15.5068 44.8275 18.3672 43.7434 21.2322 43.8601C21.2973 43.8628 21.3157 43.9621 21.248 43.9772C19.7199 44.3185 18.1749 44.7343 16.7282 45.3394C15.2772 45.9463 13.8976 46.7635 12.6688 47.7455C10.4016 49.5573 8.63944 51.9141 7.4791 54.5706C6.79945 56.1268 6.32305 57.7698 5.90705 59.4133C5.46684 61.1527 5.10403 62.9108 4.80238 64.6795C4.20655 68.1732 3.85967 71.7053 3.67509 75.2436C3.48729 78.8428 3.5647 82.4446 3.43076 86.0444C3.40762 86.6681 2.51649 86.6559 2.4712 86.0444C2.16773 81.9517 2.33585 77.7937 2.61651 73.7039C2.86886 70.0273 3.30954 66.3584 4.01916 62.7409L4.08097 62.4274C4.74436 59.0806 5.54452 55.6527 7.14827 52.6218C8.51748 50.0341 10.6313 47.8842 13.1038 46.3341ZM46.4735 62.3295C46.486 62.2937 46.5333 62.2941 46.546 62.3295C46.82 63.0967 46.8298 63.9623 46.9026 64.7709L46.9083 64.833C46.9781 65.5706 47.0307 66.3091 47.0796 67.0482L47.0978 67.3253C47.294 70.3404 47.5393 73.3522 47.9089 76.3514C48.2772 79.3393 48.7751 82.3064 49.3136 85.2676C49.3736 85.5973 49.2276 85.9331 48.882 86.0281C48.5774 86.1118 48.1863 85.9241 48.1218 85.5963C47.7875 83.8966 47.5172 82.1947 47.276 80.4803C46.8515 77.4614 46.5346 74.4286 46.3309 71.3867C46.2287 69.8589 46.1657 68.3318 46.1407 66.8008C46.1292 66.0904 46.1476 65.3784 46.1854 64.6687L46.1945 64.505C46.2362 63.7797 46.232 63.0212 46.4735 62.3295ZM20.5072 81.5339C20.5393 81.5165 20.579 81.5522 20.5587 81.5854C20.0934 82.3419 19.4639 82.9942 18.8555 83.6371C18.2195 84.3091 17.5992 85.0014 16.9503 85.6602C16.4815 86.1362 15.7273 85.3684 16.2221 84.9317C16.9178 84.3179 17.6449 83.7345 18.353 83.1343L18.6627 82.8717C19.2433 82.3811 19.841 81.8948 20.5072 81.5339ZM42.6075 81.155C42.5728 81.0888 42.6521 81.0351 42.7061 81.079C43.0814 81.3843 43.4178 81.7485 43.7802 82.0707C44.1391 82.3899 44.5114 82.6876 44.8939 82.9779C45.278 83.2694 45.6704 83.5493 46.0734 83.8142C46.4077 84.0338 46.7523 84.2098 47.1024 84.3922C47.2645 84.413 47.4146 84.4926 47.5348 84.6435C47.7248 84.8822 47.745 85.3322 47.4814 85.5394L47.4341 85.5766C47.1266 85.8184 46.7615 85.8478 46.4588 85.5766C46.1208 85.2738 45.8012 84.9405 45.4766 84.6205L45.3791 84.5249C45.0302 84.1857 44.6899 83.8356 44.369 83.4697L44.0786 83.1391C43.5397 82.5244 42.9788 81.8619 42.6075 81.155ZM40.8786 45.7146C40.8162 45.6733 40.8547 45.5619 40.9317 45.5885L41.0731 45.6374C41.6637 45.8427 42.2716 46.0704 42.8078 46.3865C43.384 46.7261 43.9161 47.1308 44.4244 47.5649C45.4766 48.4634 46.3717 49.5683 47.1324 50.7199C48.6589 53.0308 49.6028 55.6774 50.365 58.3255C51.1776 61.1491 51.8033 64.0334 52.3141 66.9259C52.8332 69.8654 53.2337 72.8314 53.4969 75.8049C53.6265 77.2697 53.7136 78.7354 53.7573 80.2052C53.7799 80.9614 53.7792 81.717 53.7729 82.4734C53.7713 82.6679 53.7725 82.8623 53.7748 83.0568L53.7822 83.6401C53.7861 84.009 53.8303 84.3966 53.7426 84.7569C53.6016 85.337 52.6429 85.2287 52.6744 84.6359C52.6455 84.4387 52.6444 84.2348 52.6519 84.0305C52.6473 84.0042 52.6424 83.9774 52.6369 83.95C52.6212 83.8716 52.6345 83.7991 52.6653 83.7367C52.6703 83.6387 52.6747 83.5414 52.6763 83.4456C52.6826 83.0562 52.6822 82.6683 52.6715 82.279C52.6488 81.458 52.6161 80.6371 52.5832 79.8166C52.5173 78.1768 52.4256 76.5364 52.2927 74.9007C51.8304 69.2071 50.8543 63.4812 49.2146 58.0036C48.4531 55.46 47.4032 52.963 45.8976 50.7649C45.2292 49.7891 44.4752 48.8878 43.6392 48.0513C42.798 47.2095 41.871 46.3721 40.8786 45.7146ZM29.5331 82.4177L29.6467 83.2399C29.7035 83.6511 29.7598 84.0624 29.8132 84.4739C30.1758 84.4243 30.5469 84.4034 30.8964 84.3725C31.5082 84.3182 32.1242 84.292 32.7378 84.2666C34.0067 84.2143 35.282 84.1235 36.5522 84.1298C36.5652 84.1299 36.5775 84.1308 36.5899 84.1318L36.6529 82.5095L35.7604 82.5081C35.0043 82.5069 34.2483 82.5005 33.4922 82.494C32.8112 82.4882 32.13 82.4872 31.4491 82.473L31.1573 82.4661C30.641 82.4522 30.0709 82.4809 29.5331 82.4177ZM36.7276 80.063C36.6912 80.0673 36.6542 80.0709 36.6148 80.0725C36.438 80.08 36.2598 80.0748 36.083 80.0763C35.7063 80.0796 35.3297 80.0821 34.953 80.0821C34.1997 80.082 33.4464 80.0865 32.6933 80.0956C31.9179 80.105 31.143 80.1185 30.3676 80.12C29.9918 80.1207 29.6173 80.1107 29.2417 80.1002C29.3025 80.6341 29.366 81.1677 29.4361 81.6999C30.0193 81.6211 30.6466 81.6609 31.2166 81.6554L31.2907 81.6544C32.0687 81.6411 32.8473 81.651 33.6255 81.6519C34.4261 81.6528 35.2266 81.6554 36.0272 81.662L36.6849 81.6674L36.6861 81.6343C36.7054 81.1111 36.7179 80.5872 36.7276 80.063ZM28.9525 77.5086C29.0254 78.1389 29.0938 78.7702 29.1636 79.4013C29.21 79.3942 29.2569 79.388 29.3048 79.383C29.681 79.3436 30.0565 79.3099 30.4341 79.2865C31.1868 79.2398 31.9394 79.2152 32.6933 79.195C33.4686 79.1742 34.2439 79.1582 35.0195 79.1473C35.3962 79.142 35.7727 79.1425 36.1495 79.1451C36.3262 79.1463 36.5048 79.1408 36.6812 79.1526C36.7022 79.154 36.7224 79.1562 36.7423 79.1585L36.7555 78.2109C36.7578 78.053 36.7602 77.8952 36.7628 77.7373C36.1804 77.7732 35.5884 77.7595 35.0065 77.7597L34.8724 77.76C34.1412 77.7633 33.4098 77.7533 32.6788 77.7381C31.9246 77.7224 31.172 77.6978 30.4191 77.6494C30.1141 77.6299 29.8113 77.6039 29.508 77.5705L29.3563 77.5531C29.2243 77.5375 29.0883 77.5249 28.9525 77.5086ZM36.8228 74.8346C35.4203 74.9459 34.0254 74.9924 32.6192 75.0063L32.4082 75.0081C31.1655 75.0175 29.9127 75.0688 28.6671 75.0359C28.7416 75.6818 28.8158 76.3277 28.8907 76.9735C29.0691 76.9652 29.2483 76.9651 29.4226 76.9589C29.7773 76.9461 30.1307 76.9429 30.4856 76.9421C31.2166 76.9404 31.9476 76.9467 32.6787 76.9453C33.4322 76.9437 34.1855 76.9309 34.9388 76.9168C35.5495 76.9053 36.1667 76.8593 36.7791 76.861L36.8228 74.8346ZM36.8821 72.0789C36.7196 72.1329 36.5277 72.1363 36.3174 72.146L35.7745 72.173C35.5228 72.1854 35.2712 72.197 35.0194 72.2062C34.1804 72.2369 33.3413 72.2656 32.5022 72.2923C31.6423 72.3196 30.7783 72.3355 29.9183 72.3084C29.497 72.2951 29.0793 72.273 28.6593 72.2378C28.5554 72.2291 28.4496 72.2235 28.3435 72.216C28.4413 73.0718 28.5394 73.9274 28.6379 74.7831C29.8775 74.6309 31.1267 74.5361 32.3648 74.3787L33.4843 74.2357C34.6032 74.0929 35.7213 73.9527 36.8443 73.8345L36.8821 72.0789ZM36.942 69.2928C36.7035 69.3517 36.4318 69.3488 36.2028 69.3632L36.1604 69.3662C35.7265 69.3991 35.2915 69.4156 34.8567 69.4263C34.0043 69.4473 33.1515 69.4578 32.2989 69.463L31.7862 69.4662C31.1027 69.4702 30.4196 69.4719 29.7359 69.456C29.2974 69.4458 28.8599 69.4243 28.4217 69.4024C28.2904 69.3957 28.1562 69.3914 28.0216 69.3846C28.1132 70.1949 28.2057 71.0049 28.298 71.815C28.442 71.7921 28.5866 71.7747 28.7245 71.7514C29.0777 71.6917 29.4302 71.644 29.7859 71.6014C30.5564 71.5091 31.3308 71.4426 32.1049 71.3865C32.8995 71.3289 33.6948 71.2802 34.4896 71.2244L35.0525 71.1847C35.2402 71.1717 35.4278 71.1591 35.6155 71.1476C35.9361 71.1279 36.3088 71.1501 36.6267 71.0803C36.7128 71.0444 36.8084 71.0362 36.9042 71.0567L36.942 69.2928ZM37.0141 66.0316C36.9317 66.1364 36.8084 66.1914 36.6615 66.2104C35.8962 66.3097 35.1112 66.3257 34.3395 66.3725L34.2034 66.3811C33.4065 66.4336 32.6092 66.4748 31.8117 66.5172C30.9925 66.5607 30.1735 66.5962 29.3536 66.6247C29.0055 66.6369 28.6557 66.6383 28.3071 66.6338L28.1578 66.6316C28.0146 66.6292 27.8647 66.6295 27.7144 66.6246C27.7976 67.3822 27.8815 68.1398 27.9667 68.8971C28.1199 68.8805 28.273 68.8677 28.4216 68.852C28.8596 68.8057 29.297 68.7599 29.7359 68.7253C30.5676 68.6597 31.4 68.6203 32.2332 68.5791C33.0857 68.5369 33.9387 68.5087 34.7914 68.4689C35.2048 68.4496 35.618 68.4256 36.0302 68.3875C36.3191 68.361 36.6622 68.2626 36.9636 68.2987C36.9801 67.543 36.9972 66.7873 37.0141 66.0316ZM37.0813 63.1102C37.0682 63.1304 37.053 63.15 37.0345 63.1682C36.6975 63.5012 36.2823 63.4755 35.8358 63.5104L35.8084 63.5127C35.3708 63.5495 34.933 63.5845 34.4949 63.6161C33.6193 63.6793 32.7419 63.7236 31.8649 63.763C30.9674 63.8033 30.0642 63.8311 29.1658 63.8128C28.5905 63.801 27.988 63.8031 27.4012 63.747C27.4914 64.5814 27.582 65.4157 27.6733 66.2499C27.8383 66.2188 28.0044 66.195 28.1616 66.1702C28.558 66.1078 28.9548 66.0451 29.3535 65.9992C30.1502 65.9075 30.947 65.8217 31.7452 65.7442C32.4278 65.678 33.1102 65.6108 33.7933 65.5503L34.2033 65.5149C35.0184 65.4463 35.8437 65.3332 36.6614 65.3164C36.7961 65.3137 36.9485 65.387 37.0258 65.5028C37.0438 64.7052 37.0625 63.9077 37.0813 63.1102ZM37.1379 60.7452C36.9297 60.7705 36.7055 60.7561 36.5134 60.7624C36.0278 60.7783 35.5421 60.793 35.0564 60.8073L32.1421 60.8934C31.1499 60.9226 30.1542 60.9446 29.1615 60.9305C28.7249 60.9244 28.2863 60.9236 27.8498 60.8999L27.7044 60.8911C27.5248 60.8791 27.3044 60.8774 27.0891 60.8556L27.3432 63.2105C27.9272 63.1261 28.529 63.0946 29.108 63.0451L29.2317 63.0342C30.0856 62.9563 30.9436 62.9049 31.7991 62.8469C32.6766 62.7875 33.5529 62.7153 34.4292 62.6415C34.8672 62.6047 35.3052 62.568 35.7428 62.5277L35.7969 62.5223C36.2103 62.4792 36.5991 62.3873 36.9653 62.6311C37.0189 62.6667 37.0608 62.7144 37.0895 62.7677C37.1055 62.0936 37.1211 61.4194 37.1379 60.7452ZM37.2059 57.9968C35.4311 58.0683 33.656 58.1225 31.8798 58.1463C30.88 58.1597 29.8815 58.1503 28.8819 58.1294C28.4484 58.1203 28.0114 58.0996 27.5782 58.0664L27.416 58.0533C27.2101 58.036 26.9937 58.0234 26.7783 58.0027C26.8673 58.8123 26.9556 59.6222 27.0433 60.4321C27.2552 60.3927 27.4767 60.3745 27.6623 60.3508L27.7045 60.3452C28.166 60.2817 28.6317 60.2447 29.0954 60.2038C29.9983 60.1243 30.9057 60.073 31.811 60.0294C32.7381 59.9848 33.6656 59.947 34.5928 59.9057L35.52 59.8642C35.6746 59.8574 35.8291 59.8506 35.9837 59.8441C36.2045 59.8348 36.4253 59.8259 36.646 59.8167C36.755 59.8122 36.8682 59.7974 36.9772 59.8031L37.0082 59.7989C37.0226 59.7971 37.0352 59.7956 37.0468 59.7944C37.0765 59.7718 37.1084 59.753 37.1422 59.7388L37.1627 59.7309L37.2059 57.9968ZM26.4872 55.3923C26.5696 56.1212 26.6511 56.8503 26.7315 57.5795C26.9847 57.5506 27.2409 57.5346 27.4826 57.5128C27.9699 57.4691 28.4596 57.4308 28.9484 57.4083L29.9255 57.3629C30.5767 57.3328 31.228 57.3037 31.8797 57.2799C33.6635 57.2148 35.4471 57.1402 37.2298 57.0491C37.2423 56.5545 37.2553 56.06 37.2686 55.5655C37.183 55.6572 37.0594 55.7175 36.8969 55.7171C35.0254 55.7121 33.1525 55.7229 31.2812 55.6921C30.3445 55.6767 29.4089 55.654 28.4732 55.6059C28.0154 55.5824 27.5551 55.5345 27.1008 55.4715C26.907 55.4447 26.695 55.4255 26.4872 55.3923ZM26.1878 52.7949C26.2758 53.5415 26.3621 54.2884 26.447 55.0355C26.6794 54.994 26.9195 54.9719 27.1363 54.9424C27.6022 54.879 28.071 54.8285 28.5402 54.802C29.4533 54.7504 30.3669 54.7243 31.2813 54.7049C33.1524 54.6652 35.0255 54.6654 36.897 54.6506C37.0728 54.6492 37.2034 54.7188 37.2891 54.8227C37.3021 54.3564 37.3158 53.8901 37.3299 53.4238C37.1491 53.4047 36.9699 53.3777 36.804 53.3661C36.2943 53.3305 35.7844 53.298 35.2743 53.2687C34.2097 53.2076 33.1442 53.1555 32.0789 53.1091C31.0134 53.0627 29.9475 53.0174 28.8816 52.9779L28.4155 52.9609C27.6743 52.9333 26.9205 52.8985 26.1878 52.7949ZM25.8526 49.9828C25.9442 50.739 26.0344 51.4954 26.1244 52.2518L26.1517 52.486C27.0432 52.3126 27.9827 52.2618 28.8816 52.2236C29.9477 52.1782 31.0119 52.1549 32.0789 52.1581C33.1448 52.1614 34.2092 52.1866 35.2742 52.2306C35.8064 52.2526 36.3386 52.278 36.8704 52.3069C37.0167 52.3148 37.1882 52.3106 37.3646 52.3131C37.3685 52.1943 37.3717 52.0754 37.3758 51.9566C37.392 51.4751 37.4079 50.9937 37.4244 50.5123C37.0646 50.6971 36.5969 50.7717 36.2354 50.8504L36.1941 50.8595C35.5972 50.9937 34.9876 51.0806 34.3783 51.1337C33.1817 51.2382 31.9727 51.1991 30.7772 51.098L30.5678 51.0801C29.518 50.989 28.4297 50.8736 27.412 50.6137C26.9272 50.49 26.4261 50.3168 25.9917 50.0657C25.9465 50.0396 25.8999 50.012 25.8526 49.9828ZM35.9606 40.996C35.971 40.9551 36.0322 40.9458 36.0523 40.984C36.1937 41.2527 36.2463 41.5752 36.3444 41.863C36.4501 42.1725 36.5486 42.4842 36.6652 42.79C36.9086 43.4287 37.1958 44.0425 37.5382 44.6342C37.8773 45.2201 36.9278 45.6383 36.6783 44.9969C36.4206 44.335 36.2089 43.6506 36.0808 42.9511C36.0182 42.6098 35.9625 42.2639 35.9444 41.9171C35.9288 41.6193 35.887 41.2866 35.9606 40.996Z" fill="black"/>
<path fill-rule="evenodd" clip-rule="evenodd" d="M43.6212 18.6743C43.5988 17.8739 42.4376 17.5417 42.1022 18.3343C42.0813 18.3555 42.0587 18.3759 42.0375 18.3942C42.1425 18.3039 41.9229 18.4533 41.8872 18.4717C41.8566 18.4875 41.8254 18.5018 41.7942 18.5165C41.5784 16.489 40.8459 14.3033 38.9531 13.2856C36.3132 12.0022 33.2627 11.7517 30.3664 11.8792C28.8992 11.9665 27.205 12.2016 25.9015 11.4575C25.4953 11.2257 25.1697 10.8607 24.7108 10.7175C23.2619 10.3245 22.6047 11.8161 22.802 13.0426C22.184 13.0475 21.5709 13.3905 21.3042 13.9553C21.1476 14.2895 21.1504 14.6502 21.0153 14.9856C20.6009 15.8363 20.008 16.4477 20.3432 17.4791C19.7537 18.1516 20.0898 19.1698 20.5655 19.8137C20.8005 20.1486 21.0803 20.4701 21.2524 20.845C21.4194 21.2039 21.1672 21.6296 21.0269 21.9698C19.9895 24.4361 20.0487 27.152 20.607 29.7245C19.4868 30.2118 19.1505 31.735 19.881 32.6942C20.1324 33.0332 20.439 33.1591 20.7868 33.3677C21.2269 33.6105 20.8674 34.5831 21.0084 35.0528C21.1998 36.1994 22.2413 36.9056 23.2711 36.161C23.9245 36.0618 24.4516 37.9679 24.9261 38.4463C25.2185 38.8318 25.5431 39.1779 25.8959 39.4974C26.9474 42.2096 32.3354 43.585 34.9993 43.428C37.7888 43.1352 39.6707 40.7602 41.2377 38.6523C42.0424 37.5292 42.5657 36.2722 42.7561 34.9012C42.9473 33.5233 42.8636 32.1429 42.7344 30.7633C42.4629 27.8322 42.0345 23.6093 41.7579 20.6465C42.7575 20.564 43.6515 19.7108 43.6212 18.6743Z" fill="#D08B5B"/>
<path fill-rule="evenodd" clip-rule="evenodd" d="M23.6935 11.1075C23.8877 10.9155 24.2057 11.1125 24.4161 11.2668L24.4627 11.3015L24.596 11.4031C24.8983 11.6367 25.1813 11.8907 25.5078 12.0928C25.8643 12.3135 26.2514 12.489 26.6445 12.6329C27.4069 12.9119 28.2271 13.0371 29.0353 13.0767C32.3424 13.2385 36.1914 11.4966 39.1929 13.5767C39.9044 14.0697 40.3954 14.7907 40.6487 15.6152C40.9345 16.545 40.8366 17.508 41.0704 18.441C41.1719 18.846 41.8709 18.9022 41.949 18.4571L41.9541 18.4227L42.0153 18.3842L42.0395 18.3698C42.0643 18.3555 42.0756 18.3513 42.0541 18.3715L42.0494 18.3758L42.0589 18.3675C42.0661 18.361 42.0735 18.3543 42.0807 18.3475L42.102 18.3266C42.251 17.9745 42.5629 17.8444 42.8656 17.8786L42.857 17.8995L42.7669 18.1323L42.7382 18.2054C42.6322 18.4721 42.5156 18.7245 42.314 18.953C42.0287 19.2763 41.674 19.5398 41.2743 19.702C41.1921 19.7354 41.2044 19.8471 41.2951 19.8561C42.188 19.9452 43.1937 19.4014 43.6136 18.5772C43.6177 18.6063 43.6202 18.6361 43.6211 18.6666C43.624 18.767 43.6183 18.8656 43.6046 18.9621C43.5549 18.9806 43.5067 19.0081 43.4621 19.0453C43.1721 19.2868 43.0297 19.6816 42.7571 19.9512C42.4713 20.2336 42.1207 20.4955 41.7399 20.6267C41.7338 20.6287 41.7289 20.6317 41.7245 20.6351C41.6958 20.5259 41.6654 20.4172 41.6307 20.3103C41.6171 20.2683 41.5612 20.2788 41.557 20.3203C41.5493 20.3945 40.5019 19.6475 39.6952 19.7682C38.1787 19.9951 37.8285 20.8827 35.6495 20.7517C34.5861 20.6877 32.3402 19.689 30.3755 19.6139C28.5931 19.5458 25.4077 20.5656 24.5673 21.1532C24.1304 21.4587 25.3641 22.4675 25.1407 22.9261C24.5068 24.2271 24.7636 25.9481 24.1008 26.9769L24.0752 27.0156C23.6508 27.6408 23.9157 29.3046 23.7504 29.8175C23.4519 30.7435 22.9577 30.3379 23.0323 30.462C23.0559 30.5012 23.1191 30.4758 23.1067 30.4306C22.9029 29.6877 22.3453 29.1269 21.6363 28.9222C21.667 28.7461 21.6112 28.5251 21.502 28.3806L21.4572 28.1716L21.416 27.976C21.321 27.5196 21.236 27.0636 21.1903 26.5948C21.1217 25.8916 21.1193 25.1833 21.1644 24.4784C21.2234 23.5522 21.4137 22.6599 21.623 21.7682L21.6455 21.6726L21.81 20.9793C22.2212 21.0965 22.6432 21.1706 23.0533 21.2074C23.5307 21.2501 24.0035 21.2461 24.4725 21.2083C24.8882 22.3404 24.8724 23.6295 24.3587 24.7351C23.7577 26.0285 22.2845 27.2639 22.6889 28.8323C22.8652 29.5161 23.8968 29.3765 23.9213 28.6861L23.9217 28.665C23.9255 27.9829 24.1569 27.4211 24.4624 26.8348L24.5045 26.7547L24.5744 26.624C24.9402 25.9382 25.2499 25.2614 25.3529 24.4812C25.5024 23.3478 25.2681 22.1774 24.7082 21.1865C26.7027 20.9779 28.633 20.1864 30.5804 19.7611L30.6697 19.742L30.7595 19.7235C32.1981 19.4326 33.7838 19.3983 35.088 20.1576C35.1129 20.1721 35.1326 20.1358 35.1101 20.1196C33.2171 18.7509 30.7653 18.9452 28.5946 19.4276L28.4696 19.4557L28.3468 19.4838C26.339 19.9487 24.2355 20.6315 22.1831 20.03C21.6496 19.8737 21.1319 19.6169 20.7143 19.245L20.6793 19.2136C20.5028 19.0539 20.3011 18.847 20.2672 18.6045C20.2552 18.5191 20.259 18.4606 20.3092 18.393C20.3616 18.3226 20.453 18.3229 20.4004 18.2975C21.0151 18.5945 21.5421 17.741 20.9648 17.3712L20.924 17.346C20.1852 16.8768 20.5543 15.809 21.4018 15.814L21.4451 15.8148C21.9251 15.8162 22.0722 15.2479 21.814 14.9152L21.7892 14.8841C21.3115 14.2674 22.1156 13.5234 22.7412 13.8721L22.7755 13.8918C23.0724 14.0565 23.3847 13.8732 23.497 13.5824C23.7381 12.9586 23.6147 12.3145 23.6005 11.6688L23.5997 11.6267L23.5987 11.5564L23.5985 11.501L23.599 11.4642C23.6021 11.3281 23.6197 11.1805 23.6935 11.1075ZM41.747 20.7239L41.753 20.7252L41.7658 20.7258L41.7775 20.8515L41.7625 20.7876L41.747 20.7239ZM21.2419 20.8129L21.2254 20.7791L21.2789 20.8007L21.2531 20.8369L21.2419 20.8129ZM34.3338 17.2174C34.2841 17.2032 34.2482 17.2808 34.2976 17.3034C35.5257 17.8665 36.4571 18.7652 37.1842 19.8913C37.2531 19.998 37.357 20.0292 37.4766 20.0106C37.5354 20.0015 37.5683 19.9729 37.5997 19.9337L37.6075 19.9237L37.6314 19.8913C37.6833 19.82 37.6764 19.7013 37.6314 19.6292C36.8934 18.4478 35.6584 17.5966 34.3338 17.2174ZM37.257 16.8485C37.203 16.8487 37.1742 16.9316 37.2155 16.9668C37.5681 17.2677 37.9124 17.6012 38.1629 17.9948C38.2845 18.1859 38.3861 18.3896 38.4597 18.6042C38.5399 18.8383 38.5658 19.081 38.6803 19.3024C38.8722 19.6735 39.3864 19.4662 39.4122 19.1036C39.4513 18.5568 38.9956 17.9418 38.6346 17.5692C38.2683 17.191 37.8189 16.9302 37.3004 16.854L37.2641 16.849L37.257 16.8485ZM23.7206 16.4204C23.5701 16.3823 23.447 16.5749 23.5653 16.6879C24.2155 17.3087 25.0941 17.5967 25.9689 17.7225L26.0134 17.7287C26.8325 17.8413 28.0237 17.9051 28.6413 17.2373C28.7721 17.0959 28.7311 16.8248 28.5212 16.7811C28.2338 16.7212 27.9387 16.7433 27.6471 16.7793L27.5639 16.7899L27.3571 16.8174C26.9487 16.8709 26.5387 16.9035 26.1264 16.8914C25.3009 16.867 24.5146 16.6219 23.7206 16.4204ZM38.0265 14.4448C37.94 14.4113 37.8485 14.5306 37.9028 14.6061C38.1519 14.9524 38.4504 15.2553 38.7055 15.5962C38.9615 15.9383 39.1752 16.2978 39.478 16.6021C39.6405 16.7654 39.9173 16.5993 39.8598 16.3793C39.6425 15.5465 38.8155 14.7506 38.0265 14.4448ZM25.0662 14.8207C24.9752 14.7884 24.9115 14.9147 24.9748 14.978C25.8131 15.817 27.3212 16.2565 28.4315 15.7719C28.6814 15.6628 28.5283 15.3122 28.3036 15.2984C27.7479 15.264 27.1899 15.3284 26.6372 15.2437C26.0975 15.1609 25.5799 15.0031 25.0662 14.8207ZM26.4752 13.6961C26.3551 13.646 26.3049 13.8256 26.3932 13.891C26.8674 14.2425 27.4496 14.3949 28.0299 14.2684C28.2189 14.2272 28.1781 13.9216 27.9842 13.9295C27.4592 13.9505 26.9644 13.9003 26.4752 13.6961ZM30.3663 11.8715C31.0849 11.8398 31.813 11.8315 32.542 11.8564L32.2185 11.8994L32.0028 11.9276C31.176 12.0345 30.3478 12.125 29.5129 12.1213C28.9487 12.1189 28.3852 12.0733 27.8342 11.9618C28.6782 12.0128 29.5568 11.9196 30.3663 11.8715Z" fill="#273636"/>
<path fill-rule="evenodd" clip-rule="evenodd" d="M21.8363 16.9159C21.8352 16.9207 21.8368 16.9243 21.8379 16.9293C21.8381 16.9279 21.8383 16.9271 21.8387 16.9253C21.8378 16.9215 21.8371 16.919 21.8363 16.9159Z" fill="#4F66AF"/>
<path fill-rule="evenodd" clip-rule="evenodd" d="M21.8372 16.9602C21.833 16.9558 21.8271 16.9525 21.8211 16.948C21.8209 16.9482 21.8209 16.9483 21.8208 16.9485C21.8264 16.9522 21.8317 16.9564 21.8372 16.9602Z" fill="#4F66AF"/>
<path fill-rule="evenodd" clip-rule="evenodd" d="M43.4621 19.0529C43.7905 18.7794 44.3077 19.0312 44.1964 19.4814C44.0754 19.9718 43.5512 20.3068 43.1185 20.5082C42.673 20.7155 42.2392 20.7555 41.7532 20.7329L41.7472 20.7315C41.8821 21.2738 41.9586 21.8376 42.0618 22.3832C42.1928 23.0753 42.3217 23.7678 42.4486 24.4606C42.5714 25.1303 42.7266 25.8009 42.8209 26.4739C42.916 27.1533 43.0074 27.8331 43.1008 28.5127C43.2568 29.6477 43.3827 30.788 43.5155 31.9263L43.5787 32.465C43.7117 33.6055 43.8187 34.7473 43.5668 35.8822C43.3306 36.9458 42.7987 37.9379 42.1817 38.8258C41.5774 39.6952 40.9024 40.5311 40.1615 41.2873C38.7322 42.7457 36.9697 43.9138 34.9031 44.1305C34.0132 44.2237 33.0628 44.1199 32.2263 43.7957L32.1707 43.7739C31.3239 43.4387 30.2868 42.8648 30.0664 41.923C29.9311 41.3453 30.5249 40.8943 31.0456 41.1684C31.2868 41.2955 31.4682 41.4406 31.6663 41.6226L31.7014 41.6551C31.8632 41.8058 31.9255 41.8521 32.1122 41.97C32.4952 42.2115 32.7823 42.3258 33.2173 42.4356C34.0194 42.6378 34.885 42.6058 35.6992 42.3666C37.4279 41.8588 38.769 40.5336 39.9178 39.2049C40.5417 38.4834 41.1337 37.7265 41.5904 36.8855C42.0695 36.0032 42.2907 35.0769 42.2774 34.073C42.2624 32.9402 42.1062 31.8031 42.0038 30.6757C41.8994 29.5263 41.8028 28.3774 41.7178 27.2264C41.6381 26.1471 41.6304 25.0629 41.6025 23.9802L41.5971 23.7772C41.5807 23.2024 41.5694 22.6274 41.5563 22.0525C41.5435 21.4793 41.4982 20.8988 41.5571 20.3279C41.5613 20.2864 41.6172 20.2759 41.6308 20.3179C41.6655 20.4248 41.6959 20.5335 41.7246 20.6427C41.729 20.6394 41.7339 20.6363 41.7399 20.6343C42.1207 20.5031 42.4714 20.2412 42.7572 19.9588C43.0298 19.6892 43.1722 19.2944 43.4621 19.0529ZM22.628 11.0218C22.8672 10.0369 23.9437 9.81687 24.7397 10.2912C25.1225 10.5193 25.4291 10.8482 25.7867 11.1096C26.1423 11.3696 26.5352 11.5783 26.9499 11.7258C27.7736 12.0186 28.6426 12.1251 29.5132 12.1289C31.6322 12.1382 33.7078 11.5413 35.8299 11.6078C37.472 11.6594 39.2148 12.1459 40.4059 13.3358C41.0475 13.9769 41.461 14.801 41.6827 15.676C41.7864 16.0849 41.8636 16.5037 41.9246 16.9216L41.9395 17.026C41.9736 17.2703 42.0284 17.5288 42.0334 17.7756C42.038 17.9973 41.9821 18.2293 41.9518 18.4486C41.8879 18.9111 41.1734 18.8584 41.0707 18.4486C40.8369 17.5156 40.9348 16.5527 40.649 15.6228C40.3957 14.7983 39.9046 14.0773 39.1932 13.5843C36.1917 11.5042 32.3426 13.2461 29.0356 13.0843C28.2273 13.0447 27.4072 12.9195 26.6448 12.6405C26.2516 12.4966 25.8646 12.3211 25.5081 12.1004C25.1816 11.8983 24.8986 11.6443 24.5963 11.4107L24.4629 11.3091C24.2557 11.1527 23.9029 10.9084 23.6938 11.1151C23.6028 11.2051 23.5973 11.4086 23.599 11.564L23.6 11.6343C23.6095 12.2941 23.7436 12.9526 23.4973 13.59C23.385 13.8808 23.0727 14.0641 22.7758 13.8994L22.7604 13.8906C22.1323 13.516 21.307 14.2688 21.7895 14.8917L21.8045 14.9106C22.076 15.2414 21.9313 15.8238 21.4454 15.8224L21.4279 15.8221C20.5621 15.795 20.178 16.8797 20.9243 17.3536L20.9472 17.3678C21.5531 17.7312 21.0217 18.6051 20.4007 18.3051C20.4533 18.3305 20.3619 18.3302 20.3095 18.4006C20.2593 18.4682 20.2555 18.5267 20.2675 18.6121C20.3037 18.8708 20.5307 19.0889 20.7146 19.2526C21.1322 19.6245 21.6499 19.8813 22.1834 20.0376C24.3204 20.6639 26.5128 19.8978 28.5949 19.4352C30.7656 18.9528 33.2173 18.7585 35.1104 20.1273C35.1329 20.1434 35.1132 20.1797 35.0883 20.1652C33.7297 19.3743 32.0658 19.4445 30.5807 19.7687C28.6333 20.194 26.7029 20.9855 24.7085 21.1941C25.2684 22.185 25.5027 23.3554 25.3532 24.4888C25.2502 25.269 24.9405 25.9458 24.5747 26.6316L24.5048 26.7623C24.1787 27.3779 23.926 27.9595 23.922 28.6726C23.918 29.3812 22.8673 29.5306 22.6892 28.8399C22.2848 27.2715 23.758 26.0361 24.359 24.7427C24.8727 23.6371 24.8885 22.348 24.4728 21.2159C24.0038 21.2537 23.531 21.2577 23.0536 21.215C22.6435 21.1782 22.2215 21.1041 21.8103 20.9869L21.6458 21.6802C21.4278 22.6038 21.2259 23.5267 21.1647 24.486C21.1196 25.1909 21.122 25.8992 21.1906 26.6024C21.2498 27.2097 21.3749 27.7953 21.5023 28.3883C21.6115 28.5327 21.6673 28.7537 21.6366 28.9298C22.3456 29.1345 22.9032 29.6953 23.107 30.4382C23.1194 30.4834 23.0562 30.5089 23.0326 30.4696C22.5492 29.6656 21.3044 29.3697 20.5169 29.9009C19.765 30.4081 19.4683 31.4321 19.894 32.2427C20.1179 32.6689 20.4499 32.9684 20.8779 33.1747L20.964 33.2152C21.1883 33.3216 21.3942 33.4376 21.5384 33.6513C21.7256 33.9285 21.7319 34.2216 21.7142 34.5383L21.7065 34.6667C21.6947 34.879 21.6921 35.0976 21.7551 35.3019L21.7695 35.3473C21.7861 35.3982 21.8036 35.4431 21.834 35.4918C21.8431 35.5063 21.9283 35.5901 21.956 35.6204L21.991 35.631L22.0301 35.6326C22.0735 35.6332 22.1306 35.6144 22.1119 35.6274L22.1169 35.6245C22.1334 35.6142 22.1486 35.6034 22.1613 35.5937L22.1855 35.5747C22.2422 35.4926 22.3133 35.4247 22.4004 35.373L22.4836 35.3359C22.6999 35.107 23.0704 35.2272 23.2254 35.4553C23.337 35.6192 23.397 35.786 23.4019 35.9504C23.4193 35.9224 23.4581 35.907 23.4827 35.9384L23.6297 36.1262C24.192 36.8465 24.7447 37.5713 25.3837 38.2279C25.7357 38.5898 26.1144 38.9297 26.5102 39.2429C26.8482 39.5103 27.4892 39.7675 27.499 40.2546C27.5021 40.4127 27.3901 40.5246 27.2531 40.5783C26.8073 40.7529 26.2563 40.159 25.9343 39.87L25.908 39.8466C25.5138 39.5006 25.1541 39.1207 24.8222 38.7144C24.1775 37.9253 23.6384 37.017 23.4008 36.0179C23.3896 36.1922 23.315 36.3631 23.1697 36.5243C22.9763 36.7389 22.7116 36.8893 22.4289 36.9513C21.7883 37.0916 21.1629 36.8605 20.7818 36.3255C20.4596 35.8731 20.3648 35.2758 20.4064 34.7292L20.4115 34.6637C20.4173 34.576 20.4248 34.4152 20.4474 34.3467L20.2457 34.2357C19.9984 34.1038 19.7692 33.9309 19.5635 33.7408C18.7369 32.9767 18.3221 31.735 18.7 30.6485C18.9364 29.9687 19.4332 29.3773 20.0693 29.0699C19.9629 28.8236 19.9274 28.5311 19.8873 28.2722L19.8805 28.2294C19.8125 27.8048 19.7555 27.3749 19.7338 26.9452C19.6933 26.1428 19.7426 25.3328 19.8684 24.5397C20.0727 23.2514 20.4956 21.8851 21.2708 20.8044C20.6794 20.5689 20.135 20.228 19.7148 19.7547C19.2757 19.2601 18.9958 18.552 19.3354 17.9239C19.4219 17.7638 19.5346 17.6293 19.6642 17.5224C19.4395 17.097 19.3668 16.5942 19.5055 16.1137C19.6712 15.5392 20.1211 15.0911 20.6646 14.8819C20.5326 14.3376 20.6405 13.7521 21.0437 13.2984C21.4438 12.8484 22.065 12.6845 22.6399 12.7874C22.6711 12.2085 22.4893 11.5927 22.628 11.0218ZM21.0156 31.3477C21.5428 31.089 22.1675 31.1301 22.694 31.3752L22.7297 31.3922C23.3046 31.6717 24.066 32.3246 23.8832 33.019C23.7763 33.4251 23.3262 33.5638 22.9772 33.3885C22.6856 33.242 22.6191 32.9801 22.4729 32.717C22.3695 32.531 22.2416 32.3856 22.0915 32.236C21.775 31.9208 21.4195 31.6867 21.0156 31.4994C20.9574 31.4723 20.9594 31.3753 21.0156 31.3477ZM34.2977 17.311C34.2483 17.2884 34.2841 17.2108 34.3338 17.225C35.6584 17.6042 36.8934 18.4554 37.6314 19.6368C37.6764 19.7089 37.6833 19.8276 37.6314 19.8989L37.6075 19.9313C37.5737 19.9756 37.5403 20.0083 37.4767 20.0182C37.357 20.0368 37.2531 20.0055 37.1842 19.8989C36.4572 18.7728 35.5257 17.8741 34.2977 17.311ZM43.165 17.534C43.2772 17.3434 43.5748 17.3818 43.634 17.5954L43.6425 17.614C43.6745 17.6868 43.66 17.7017 43.6003 17.6605C43.748 17.7825 43.8148 17.9641 43.7697 18.1594C43.5259 19.2142 42.3342 19.9674 41.2952 19.8637C41.2046 19.8547 41.1922 19.743 41.2744 19.7096C41.6741 19.5474 42.0289 19.2839 42.3141 18.9606C42.5914 18.6463 42.708 18.2867 42.8572 17.9072C42.9131 17.7647 43.0002 17.6621 43.1228 17.6061C43.139 17.5836 43.1532 17.5596 43.165 17.534ZM37.257 16.8561L37.2641 16.8566C37.798 16.9257 38.2597 17.1898 38.6346 17.5768C38.9956 17.9494 39.4513 18.5644 39.4122 19.1112C39.3864 19.4738 38.8722 19.6811 38.6803 19.31C38.5658 19.0886 38.5399 18.8459 38.4597 18.6118C38.3861 18.3973 38.2845 18.1935 38.1629 18.0025C37.9124 17.6088 37.5681 17.2753 37.2155 16.9744C37.1742 16.9392 37.203 16.8563 37.257 16.8561ZM23.5654 16.6955C23.447 16.5825 23.5701 16.3899 23.7207 16.428C24.5146 16.6296 25.3009 16.8746 26.1264 16.899C26.5387 16.9111 26.9487 16.8785 27.3572 16.825L27.564 16.7975C27.8825 16.7558 28.2064 16.7231 28.5213 16.7887C28.7312 16.8324 28.7722 17.1035 28.6414 17.2449C28.0238 17.9128 26.8325 17.8489 26.0134 17.7363C25.124 17.614 24.2265 17.3269 23.5654 16.6955ZM37.9033 14.6137C37.849 14.5382 37.9404 14.4189 38.027 14.4524C38.816 14.7582 39.643 15.5541 39.8603 16.3869C39.9178 16.6069 39.641 16.773 39.4785 16.6097C39.1757 16.3054 38.9619 15.9459 38.706 15.6039C38.4509 15.2629 38.1524 14.96 37.9033 14.6137ZM24.9748 14.9856C24.9116 14.9223 24.9752 14.796 25.0662 14.8283C25.5799 15.0107 26.0975 15.1685 26.6372 15.2513C27.19 15.336 27.7479 15.2716 28.3036 15.306C28.5284 15.3198 28.6815 15.6704 28.4316 15.7795C27.3212 16.2641 25.8131 15.8247 24.9748 14.9856ZM26.3936 13.8986C26.3054 13.8332 26.3556 13.6536 26.4757 13.7037C26.9649 13.9079 27.4597 13.9581 27.9847 13.9371C28.1786 13.9292 28.2194 14.2348 28.0304 14.276C27.4501 14.4025 26.8679 14.2501 26.3936 13.8986Z" fill="black"/>
<path fill-rule="evenodd" clip-rule="evenodd" d="M35.3315 37.6201C34.8817 37.4365 34.4805 37.1304 34.1871 36.7393C34.0851 36.6033 34.0587 36.4598 34.0801 36.3284C34.1041 36.1808 34.1914 36.047 34.3105 35.9572C34.43 35.8672 34.5794 35.8227 34.7239 35.8454C34.8494 35.8651 34.9743 35.9338 35.0732 36.0764L35.0939 36.1049C35.2683 36.341 35.4956 36.5347 35.7545 36.6595C36.0041 36.7798 36.2833 36.836 36.5722 36.8033C37.1224 36.7411 37.5016 36.4435 37.9046 36.0393C37.9546 35.9882 38.0046 35.9356 38.0548 35.8821C38.0866 35.8336 38.1306 35.8025 38.1795 35.7861C38.2337 35.768 38.2951 35.769 38.3514 35.7886C38.4056 35.8076 38.4541 35.8434 38.4866 35.8912C38.5175 35.9366 38.535 35.9927 38.5293 36.0571C38.4924 36.4761 38.2735 36.8499 37.9625 37.1435C37.6172 37.4695 37.1593 37.6951 36.7283 37.7742C36.2535 37.8613 35.7696 37.7989 35.3315 37.6201ZM36.9525 31.1576C37.4577 31.4648 38.2274 32.1811 37.6839 32.9427C37.0442 33.6142 36.1232 32.8443 35.6693 32.4961C35.2484 32.2262 34.7756 32.9203 35.166 33.2354C38.4458 35.6645 39.7768 31.2379 37.208 30.7964C36.9251 30.7477 36.8201 31.0626 36.9525 31.1576ZM31.075 28.3319C31.1308 27.6387 32.186 27.4813 32.291 28.1672C32.385 28.7816 32.2743 29.346 31.9977 29.8992C31.7334 30.4276 31.069 30.1811 31.0188 29.6999C30.9514 29.0548 31.0403 28.763 31.075 28.3319ZM39.1076 28.025C39.2547 27.8323 39.4671 27.7007 39.7216 27.775C40.5167 28.0075 40.2824 29.1367 40.0031 29.6864C39.8514 29.9849 39.3609 30.0606 39.1393 29.7978C38.778 29.3692 38.605 28.5132 39.0643 28.0911C39.0767 28.0693 39.0906 28.0472 39.1076 28.025ZM31.9865 25.299L32.1121 25.277C32.5007 25.2098 32.9838 25.1452 33.2587 25.4577C33.4044 25.6234 33.4546 25.9314 33.2587 26.09C32.914 26.3691 32.5329 26.2609 32.1199 26.2846C31.7795 26.3041 31.4523 26.3605 31.1244 26.4542C30.4051 26.6599 29.819 27.0354 29.2046 27.4476C29.124 27.5017 29.0417 27.3986 29.0802 27.3231C29.4348 26.6282 30.1221 26.0574 30.8105 25.7095C31.178 25.5237 31.58 25.3697 31.9865 25.299ZM38.3827 24.9877L38.4789 25.0074C39.525 25.2261 40.8842 25.6631 41.3796 26.6911C41.3985 26.8365 41.3786 26.8676 41.3623 26.888L41.3569 26.8947C41.3436 26.9121 41.3329 26.9361 41.2699 26.9559C41.2525 26.9517 41.2348 26.9473 41.217 26.9426C40.9899 26.8831 40.8102 26.8011 40.6363 26.716L40.4477 26.623C40.2289 26.5157 40.0081 26.4123 39.7742 26.3359C39.275 26.173 38.7615 26.0583 38.24 25.997C38.127 25.9837 38.0182 25.9456 37.9323 25.8802C37.8508 25.8181 37.7885 25.7321 37.7602 25.6179C37.7234 25.47 37.7339 25.3581 37.8132 25.2247C37.8729 25.1246 37.9582 25.0551 38.0561 25.0153C38.156 24.9746 38.2697 24.965 38.3827 24.9877Z" fill="black"/>
</g>
</svg>
