<svg width="165" height="58" viewBox="0 0 165 58" fill="none" xmlns="http://www.w3.org/2000/svg">
<path fill-rule="evenodd" clip-rule="evenodd" d="M54.6633 1.00643C52.8825 1.07309 51.1615 1.66694 49.7185 2.71271C48.2756 3.75848 47.1755 5.2091 46.5579 6.88072C45.9402 8.55233 45.8327 10.3697 46.249 12.1025C46.6653 13.8352 47.5867 15.4054 48.8963 16.614C50.2059 17.8226 51.8449 18.6152 53.6055 18.8913C55.366 19.1674 57.169 18.9147 58.7857 18.1651C60.4025 17.4155 61.7603 16.2027 62.6871 14.6806C63.6139 13.1585 64.068 11.3955 63.9918 9.61506C63.9322 7.82671 63.3249 6.0998 62.2519 4.66789C62.0702 4.40935 61.9304 4.28358 61.7487 4.05299C60.8682 3.05069 59.7754 2.2572 58.5498 1.73021C57.3242 1.20321 55.9965 0.955962 54.6633 1.00643ZM54.852 8.92329C54.7123 9.04208 54.7402 9.02112 54.5376 9.04208L54.6214 8.49007C54.5742 8.66633 54.5037 8.83552 54.4118 8.99317C54.3719 8.87908 54.3558 8.75805 54.3644 8.6375C54.3729 8.51695 54.4061 8.39942 54.4617 8.29213C54.5173 8.18483 54.5942 8.09002 54.6878 8.01351C54.7813 7.93701 54.8895 7.88042 55.0057 7.84721V8.79752C55.0057 8.1896 56.1587 7.27424 56.4032 6.35887C56.5055 5.98611 56.5055 5.59267 56.4032 5.2199C56.4032 5.39459 56.543 5.58326 56.5779 5.82083C56.599 6.06727 56.599 6.31507 56.5779 6.56151C56.8128 6.33528 57.0704 6.13391 57.3466 5.96058C57.2418 6.13527 57.2138 6.10732 57.0531 6.25406L56.1866 7.26026C55.8297 7.7513 55.5645 8.30289 55.404 8.88836C55.1836 9.4347 55.0698 10.0182 55.0686 10.6073C55.0735 11.2654 55.1319 11.9221 55.2433 12.5708L55.998 11.7602C56.436 11.2852 56.7394 10.702 56.877 10.0707C57.0145 9.43939 56.9812 8.78281 56.7806 8.16864C56.9978 8.54328 57.1381 8.95749 57.1933 9.38702C57.2485 9.81656 57.2175 10.2528 57.102 10.6702C58.0873 9.80372 58.1222 8.80451 58.1711 7.75638L58.2689 8.45513C58.4883 8.1757 58.781 7.96279 59.1144 7.84023C58.8558 7.9981 58.6377 8.21429 58.4775 8.4715C58.3174 8.72872 58.2196 9.01984 58.1921 9.32158C58.0485 9.91738 57.8001 10.4829 57.4584 10.9916C56.4941 12.3891 55.5368 12.8153 56.2146 14.136C56.543 13.9124 56.8574 13.6538 57.2487 13.4372C58.6463 12.5708 60.1765 12.3472 60.3093 11.0056C60.2853 11.4773 60.1088 11.9285 59.8062 12.2913C60.351 12.1788 60.906 12.1226 61.4623 12.1236C59.8411 12.6896 59.1005 12.6686 57.4234 13.9962C57.1043 14.1734 56.8281 14.4186 56.6143 14.7144C56.4006 15.0103 56.2546 15.3496 56.1866 15.7082C55.863 16.5249 55.8115 17.4243 56.0399 18.2726C57.569 18.0661 59.0115 17.4416 60.2086 16.468C61.4056 15.4944 62.3108 14.2093 62.8244 12.7543C63.3381 11.2993 63.4403 9.73083 63.1198 8.22148C62.7994 6.71213 62.0686 5.32047 61.0081 4.19973C60.9172 4.1019 60.8753 4.03202 60.7775 3.94119C60.0573 3.285 59.2393 2.74513 58.3528 2.34104C57.1318 1.81178 55.8024 1.58073 54.4744 1.66698C53.1465 1.75324 51.8581 2.15432 50.7158 2.83707C49.5736 3.51983 48.6102 4.46465 47.9054 5.59344C47.2006 6.72222 46.7746 8.00254 46.6626 9.32857C46.5033 11.4181 47.1323 13.4916 48.4256 15.1406C49.7189 16.7895 51.5828 17.8945 53.6501 18.2377C53.6478 17.8072 53.7359 17.3811 53.9087 16.9869L54.6074 15.3099C54.7402 14.8837 53.9506 14.2268 53.6991 13.9683C53.1433 13.4649 52.502 13.065 51.8054 12.7874C50.9488 12.4863 50.0438 12.3465 49.1362 12.3751L50.8272 12.3053C50.4884 12.0059 50.2699 11.5937 50.2123 11.1453C50.2123 11.5157 50.7293 12.0397 50.9949 12.2004C51.4401 12.4293 51.9086 12.6097 52.3924 12.7385C54.0205 13.3254 54.3838 14.136 54.7542 14.3107C54.4677 12.4442 53.5234 10.7417 52.0919 9.51025C51.5086 9.14528 50.8373 8.94489 50.1494 8.93028C50.5051 8.79315 50.8883 8.74285 51.2674 8.78354C51.0512 8.39799 50.9449 7.96056 50.9599 7.5188C51.456 9.43338 51.8474 8.48308 53.0981 9.90854C53.321 10.186 53.5906 10.4225 53.8947 10.6073C53.6748 9.91598 53.541 9.20017 53.4964 8.47609C53.5121 8.15006 53.4513 7.82488 53.3191 7.52645C53.1869 7.22802 52.9868 6.9646 52.7348 6.75716C53.2169 6.97377 53.2868 7.25327 53.6082 7.58169C53.6375 7.13804 53.7365 6.70178 53.9017 6.289C53.7928 7.06702 53.7787 7.85539 53.8598 8.63681C53.9551 9.3172 54.153 9.97922 54.4467 10.6003C54.5096 10.3068 54.5725 9.99238 54.6354 9.71288L54.8101 9.01413C54.873 8.90932 54.8939 9.00016 54.852 8.92329Z" fill="#293737"/>
<path fill-rule="evenodd" clip-rule="evenodd" d="M54.4928 0.0549613C52.6241 0.264706 50.8565 1.05319 49.4136 2.32067C47.9706 3.58814 46.9172 5.27766 46.3866 7.1755C45.8559 9.07333 45.8719 11.0942 46.4325 12.9825C46.9931 14.8707 48.0731 16.5416 49.5359 17.7836C50.9987 19.0256 52.7785 19.783 54.6503 19.9599C56.522 20.1369 58.4016 19.7254 60.0512 18.7777C61.7008 17.8299 63.0463 16.3884 63.9175 14.6355C64.7887 12.8826 65.1465 10.897 64.9455 8.93004C64.6728 6.29602 63.4197 3.8831 61.4606 2.21966C59.5014 0.55622 56.996 -0.222163 54.4928 0.0549613ZM54.4928 0.271426C53.2599 0.406803 52.0659 0.804486 50.9834 1.44034C48.9725 2.61179 47.4464 4.52757 46.701 6.81624C45.9557 9.10492 46.0442 11.6034 46.9494 13.8273C47.8546 16.0512 49.512 17.842 51.6002 18.8525C53.6884 19.8631 56.0587 20.0213 58.2515 19.2966C60.4443 18.5719 62.3033 17.0159 63.4681 14.9302C64.633 12.8445 65.0206 10.3778 64.5559 8.00834C64.0912 5.63887 62.8072 3.53547 60.953 2.10597C59.0988 0.676457 56.8063 0.0226908 54.5202 0.271426H54.4928Z" fill="#ADBB15"/>
<path d="M0 58V25H26V32.0259H8.04494V38.2028H20.0103V44.9882H8.04494V58H0Z" fill="#F1B258"/>
<path d="M0 58V25H26V32.0259H8.04494V38.2028H20.0103V44.9882H8.04494V58H0Z" fill="#ED7F17"/>
<path d="M61.9998 40.9823C62.0115 43.2832 61.5511 45.5618 60.6474 47.6761C59.7714 49.7039 58.5161 51.5439 56.9495 53.0962C55.3374 54.6384 53.4462 55.8562 51.3781 56.6837C46.9591 58.4388 42.0409 58.4388 37.622 56.6837C35.5568 55.8545 33.6682 54.6369 32.0575 53.0962C30.4865 51.5477 29.2305 49.7067 28.3597 47.6761C27.4504 45.5633 26.9875 43.284 27.0003 40.9823C27.006 38.7403 27.4561 36.522 28.3244 34.4567C29.1927 32.3914 30.4618 30.5205 32.0575 28.9532C33.6555 27.3858 35.5467 26.1521 37.622 25.3233C42.0392 23.5589 46.9609 23.5589 51.3781 25.3233C53.4525 26.135 55.3462 27.352 56.9495 28.9037C58.5459 30.4701 59.815 32.341 60.6822 34.4066C61.5494 36.4722 61.9973 38.6909 61.9998 40.9327V40.9823ZM53.7236 40.9823C53.7329 39.6913 53.4937 38.4106 53.0192 37.2108C52.579 36.0655 51.9103 35.0229 51.0541 34.1469C50.2328 33.2929 49.2449 32.6184 48.1521 32.1657C46.9988 31.6709 45.7576 31.4158 44.5035 31.4158C43.2494 31.4158 42.0083 31.6709 40.855 32.1657C39.7358 32.6149 38.7237 33.2966 37.885 34.166C37.0463 35.0354 36.3998 36.073 35.9879 37.2108C35.5106 38.4098 35.2714 39.691 35.2835 40.9823C35.274 42.2893 35.5131 43.5862 35.9879 44.8032C36.4276 45.9225 37.0781 46.9459 37.9037 47.8176C38.7535 48.6726 39.7543 49.3613 40.855 49.8484C43.1968 50.7916 45.8103 50.7916 48.1521 49.8484C50.3619 48.8609 52.106 47.0531 53.0192 44.8032C53.4905 43.5852 53.7295 42.289 53.7236 40.9823Z" fill="#F1B258"/>
<path d="M61.9998 40.9823C62.0115 43.2832 61.5511 45.5618 60.6474 47.6761C59.7714 49.7039 58.5161 51.5439 56.9495 53.0962C55.3374 54.6384 53.4462 55.8562 51.3781 56.6837C46.9591 58.4388 42.0409 58.4388 37.622 56.6837C35.5568 55.8545 33.6682 54.6369 32.0575 53.0962C30.4865 51.5477 29.2305 49.7067 28.3597 47.6761C27.4504 45.5633 26.9875 43.284 27.0003 40.9823C27.006 38.7403 27.4561 36.522 28.3244 34.4567C29.1927 32.3914 30.4618 30.5205 32.0575 28.9532C33.6555 27.3858 35.5467 26.1521 37.622 25.3233C42.0392 23.5589 46.9609 23.5589 51.3781 25.3233C53.4525 26.135 55.3462 27.352 56.9495 28.9037C58.5459 30.4701 59.815 32.341 60.6822 34.4066C61.5494 36.4722 61.9973 38.6909 61.9998 40.9327V40.9823ZM53.7236 40.9823C53.7329 39.6913 53.4937 38.4106 53.0192 37.2108C52.579 36.0655 51.9103 35.0229 51.0541 34.1469C50.2328 33.2929 49.2449 32.6184 48.1521 32.1657C46.9988 31.6709 45.7576 31.4158 44.5035 31.4158C43.2494 31.4158 42.0083 31.6709 40.855 32.1657C39.7358 32.6149 38.7237 33.2966 37.885 34.166C37.0463 35.0354 36.3998 36.073 35.9879 37.2108C35.5106 38.4098 35.2714 39.691 35.2835 40.9823C35.274 42.2893 35.5131 43.5862 35.9879 44.8032C36.4276 45.9225 37.0781 46.9459 37.9037 47.8176C38.7535 48.6726 39.7543 49.3613 40.855 49.8484C43.1968 50.7916 45.8103 50.7916 48.1521 49.8484C50.3619 48.8609 52.106 47.0531 53.0192 44.8032C53.4905 43.5852 53.7295 42.289 53.7236 40.9823Z" fill="#ED7F17"/>
<path d="M99.9998 40.9823C100.01 43.2845 99.5451 45.5638 98.6336 47.6761C97.763 49.705 96.5099 51.5455 94.9435 53.0962C93.3306 54.6369 91.44 55.8545 89.3732 56.6837C84.9551 58.4388 80.0379 58.4388 75.6198 56.6837C73.553 55.8545 71.6625 54.6369 70.0495 53.0962C68.4831 51.5455 67.23 49.705 66.3594 47.6761C65.4503 45.5633 64.9875 43.284 65.0003 40.9823C65.0066 38.7411 65.4563 36.5235 66.3231 34.4584C67.1899 32.3934 68.4566 30.522 70.0495 28.9532C71.6492 27.3851 73.5425 26.1513 75.6198 25.3233C80.0362 23.5589 84.9569 23.5589 89.3732 25.3233C91.449 26.1357 93.3445 27.3525 94.9506 28.9037C96.5435 30.4725 97.8102 32.3438 98.677 34.4089C99.5438 36.4739 99.9935 38.6915 99.9998 40.9327V40.9823ZM91.7182 40.9823C91.7275 39.6913 91.4884 38.4106 91.014 37.2108C90.5739 36.0655 89.9053 35.0229 89.0493 34.1469C88.2269 33.2944 87.2395 32.6202 86.1479 32.1657C84.9936 31.6707 83.7515 31.4155 82.4965 31.4155C81.2415 31.4155 79.9995 31.6707 78.8452 32.1657C77.7436 32.6247 76.7432 33.2981 75.9015 34.1469C75.0705 35.0331 74.4199 36.0739 73.9861 37.2108C73.5117 38.4106 73.2726 39.6913 73.2818 40.9823C73.2758 42.289 73.5147 43.5853 73.9861 44.8032C74.4309 45.9214 75.0833 46.9444 75.9086 47.8176C76.7556 48.6725 77.7539 49.3612 78.8522 49.8484C81.1959 50.792 83.8113 50.792 86.1549 49.8484C87.2434 49.3659 88.2287 48.6763 89.0563 47.8176C89.9039 46.9538 90.5718 45.9291 91.0211 44.8032C91.49 43.5848 91.7265 42.2886 91.7182 40.9823Z" fill="#F1B258"/>
<path d="M99.9998 40.9823C100.01 43.2845 99.5451 45.5638 98.6336 47.6761C97.763 49.705 96.5099 51.5455 94.9435 53.0962C93.3306 54.6369 91.44 55.8545 89.3732 56.6837C84.9551 58.4388 80.0379 58.4388 75.6198 56.6837C73.553 55.8545 71.6625 54.6369 70.0495 53.0962C68.4831 51.5455 67.23 49.705 66.3594 47.6761C65.4503 45.5633 64.9875 43.284 65.0003 40.9823C65.0066 38.7411 65.4563 36.5235 66.3231 34.4584C67.1899 32.3934 68.4566 30.522 70.0495 28.9532C71.6492 27.3851 73.5425 26.1513 75.6198 25.3233C80.0362 23.5589 84.9569 23.5589 89.3732 25.3233C91.449 26.1357 93.3445 27.3525 94.9506 28.9037C96.5435 30.4725 97.8102 32.3438 98.677 34.4089C99.5438 36.4739 99.9935 38.6915 99.9998 40.9327V40.9823ZM91.7182 40.9823C91.7275 39.6913 91.4884 38.4106 91.014 37.2108C90.5739 36.0655 89.9053 35.0229 89.0493 34.1469C88.2269 33.2944 87.2395 32.6202 86.1479 32.1657C84.9936 31.6707 83.7515 31.4155 82.4965 31.4155C81.2415 31.4155 79.9995 31.6707 78.8452 32.1657C77.7436 32.6247 76.7432 33.2981 75.9015 34.1469C75.0705 35.0331 74.4199 36.0739 73.9861 37.2108C73.5117 38.4106 73.2726 39.6913 73.2818 40.9823C73.2758 42.289 73.5147 43.5853 73.9861 44.8032C74.4309 45.9214 75.0833 46.9444 75.9086 47.8176C76.7556 48.6725 77.7539 49.3612 78.8522 49.8484C81.1959 50.792 83.8113 50.792 86.1549 49.8484C87.2434 49.3659 88.2287 48.6763 89.0563 47.8176C89.9039 46.9538 90.5718 45.9291 91.0211 44.8032C91.49 43.5848 91.7265 42.2886 91.7182 40.9823Z" fill="#ED7F17"/>
<path d="M104 58V25.0004H117.019C119.3 24.9843 121.563 25.4341 123.673 26.3235C125.666 27.1161 127.488 28.3011 129.036 29.8117C130.579 31.3033 131.816 33.0953 132.674 35.0828C133.565 37.1282 134.017 39.3455 134 41.5851C134.011 43.7945 133.559 45.9806 132.674 47.9954C131.813 49.9674 130.582 51.7464 129.05 53.2312C127.502 54.7418 125.68 55.9268 123.687 56.7194C121.568 57.5759 119.31 58.0082 117.032 57.9929L104 58ZM116.839 32.1678H111.883V50.8326H116.839C118.049 50.843 119.249 50.6024 120.367 50.1251C121.432 49.6841 122.399 49.0271 123.21 48.1935C124.039 47.3442 124.694 46.3339 125.136 45.2219C125.603 44.0719 125.837 42.8374 125.827 41.5922C125.839 40.3331 125.604 39.0844 125.136 37.9201C124.703 36.7885 124.047 35.7602 123.21 34.8989C122.409 34.0577 121.445 33.3974 120.38 32.9602C119.274 32.439 118.071 32.1687 116.853 32.1678H116.839Z" fill="#F1B258"/>
<path d="M104 58V25.0004H117.019C119.3 24.9843 121.563 25.4341 123.673 26.3235C125.666 27.1161 127.488 28.3011 129.036 29.8117C130.579 31.3033 131.816 33.0953 132.674 35.0828C133.565 37.1282 134.017 39.3455 134 41.5851C134.011 43.7945 133.559 45.9806 132.674 47.9954C131.813 49.9674 130.582 51.7464 129.05 53.2312C127.502 54.7418 125.68 55.9268 123.687 56.7194C121.568 57.5759 119.31 58.0082 117.032 57.9929L104 58ZM116.839 32.1678H111.883V50.8326H116.839C118.049 50.843 119.249 50.6024 120.367 50.1251C121.432 49.6841 122.399 49.0271 123.21 48.1935C124.039 47.3442 124.694 46.3339 125.136 45.2219C125.603 44.0719 125.837 42.8374 125.827 41.5922C125.839 40.3331 125.604 39.0844 125.136 37.9201C124.703 36.7885 124.047 35.7602 123.21 34.8989C122.409 34.0577 121.445 33.3974 120.38 32.9602C119.274 32.439 118.071 32.1687 116.853 32.1678H116.839Z" fill="#ED7F17"/>
<path d="M136 52.4786L140.443 46.5745C142.103 47.9947 143.953 49.171 145.938 50.0688C147.633 50.7892 149.454 51.158 151.293 51.1532C152.766 51.2269 154.236 50.9375 155.575 50.3098C156.039 50.1147 156.436 49.7865 156.717 49.3658C156.999 48.9452 157.152 48.4503 157.159 47.9424C157.175 47.5248 157.085 47.1099 156.897 46.7375C156.71 46.3652 156.43 46.0479 156.086 45.8161C155.036 45.1771 153.863 44.7735 152.645 44.6325L145.476 43.3567C143.159 43.0531 141.009 41.9725 139.371 40.2877C137.933 38.637 137.18 36.4893 137.269 34.2914C137.207 32.8467 137.494 31.4086 138.104 30.1009C138.715 28.7933 139.631 27.6555 140.773 26.7855C143.165 24.9285 146.436 24 150.585 24C153.099 24.0054 155.593 24.4391 157.965 25.2829C160.279 26.0367 162.441 27.2033 164.349 28.7275L160.067 34.7238C158.549 33.4827 156.855 32.4792 155.042 31.7469C153.453 31.1229 151.764 30.8033 150.059 30.8042C148.724 30.7441 147.395 31.0193 146.19 31.6052C145.782 31.776 145.432 32.0634 145.184 32.4323C144.935 32.8011 144.797 33.2354 144.789 33.6819C144.773 34.0532 144.845 34.4229 144.999 34.7605C145.152 35.0982 145.383 35.3941 145.672 35.6239C146.584 36.1626 147.6 36.4984 148.65 36.6091L155.407 37.7432C158.537 38.2488 160.911 39.3048 162.527 40.9114C163.347 41.7173 163.99 42.6883 164.415 43.7616C164.84 44.8348 165.037 45.9863 164.994 47.1415C165.044 48.6825 164.717 50.2122 164.044 51.5954C163.37 52.9786 162.371 54.1729 161.133 55.0727C158.586 57.029 155.11 58.0047 150.704 58C148.036 57.9908 145.392 57.4987 142.896 56.547C140.382 55.6054 138.048 54.2288 136 52.4786Z" fill="#F1B258"/>
<path d="M136 52.4786L140.443 46.5745C142.103 47.9947 143.953 49.171 145.938 50.0688C147.633 50.7892 149.454 51.158 151.293 51.1532C152.766 51.2269 154.236 50.9375 155.575 50.3098C156.039 50.1147 156.436 49.7865 156.717 49.3658C156.999 48.9452 157.152 48.4503 157.159 47.9424C157.175 47.5248 157.085 47.1099 156.897 46.7375C156.71 46.3652 156.43 46.0479 156.086 45.8161C155.036 45.1771 153.863 44.7735 152.645 44.6325L145.476 43.3567C143.159 43.0531 141.009 41.9725 139.371 40.2877C137.933 38.637 137.18 36.4893 137.269 34.2914C137.207 32.8467 137.494 31.4086 138.104 30.1009C138.715 28.7933 139.631 27.6555 140.773 26.7855C143.165 24.9285 146.436 24 150.585 24C153.099 24.0054 155.593 24.4391 157.965 25.2829C160.279 26.0367 162.441 27.2033 164.349 28.7275L160.067 34.7238C158.549 33.4827 156.855 32.4792 155.042 31.7469C153.453 31.1229 151.764 30.8033 150.059 30.8042C148.724 30.7441 147.395 31.0193 146.19 31.6052C145.782 31.776 145.432 32.0634 145.184 32.4323C144.935 32.8011 144.797 33.2354 144.789 33.6819C144.773 34.0532 144.845 34.4229 144.999 34.7605C145.152 35.0982 145.383 35.3941 145.672 35.6239C146.584 36.1626 147.6 36.4984 148.65 36.6091L155.407 37.7432C158.537 38.2488 160.911 39.3048 162.527 40.9114C163.347 41.7173 163.99 42.6883 164.415 43.7616C164.84 44.8348 165.037 45.9863 164.994 47.1415C165.044 48.6825 164.717 50.2122 164.044 51.5954C163.37 52.9786 162.371 54.1729 161.133 55.0727C158.586 57.029 155.11 58.0047 150.704 58C148.036 57.9908 145.392 57.4987 142.896 56.547C140.382 55.6054 138.048 54.2288 136 52.4786Z" fill="#ED7F17"/>
<path fill-rule="evenodd" clip-rule="evenodd" d="M58.0035 6.44013C58.5121 6.00639 59.0972 5.71123 59.7158 5.57625C59.1276 5.77501 58.5852 6.12639 58.129 6.60427C59.0589 7.71004 59.9372 6.18097 60.2619 5.86133C60.5867 5.54169 60.7343 5.55897 61 5.36028C60.4153 5.05173 59.7691 4.93813 59.1327 5.032C58.4759 5.21342 57.9519 5.61944 58.0035 6.44013Z" fill="#ADBB15"/>
<path fill-rule="evenodd" clip-rule="evenodd" d="M59 13.8274C59.6756 13.7121 60.3619 13.7862 61.0148 14.0449C60.3608 13.8879 59.691 13.8879 59.037 14.0449C59.7778 15.9626 60.6222 14.381 62 14.4897C61.1333 12.9279 59.2148 12.4138 59 13.8274Z" fill="#ADBB15"/>
<path fill-rule="evenodd" clip-rule="evenodd" d="M50 6.49446L50.0682 6.52616H50.1023L50.2841 6.56844C50.3756 6.58942 50.4649 6.61771 50.5511 6.65299C51.0341 6.84323 51.5398 7.36641 51.9886 6.57901C51.6183 6.41429 51.2115 6.33283 50.8011 6.3412C51.2033 6.30835 51.6086 6.33872 52 6.43104C51.8693 6.08226 51.5057 5.95543 51.0114 6.01356C50.6369 6.0942 50.2896 6.25936 50 6.49446Z" fill="#ADBB15"/>
<path fill-rule="evenodd" clip-rule="evenodd" d="M61.0207 11.6704C61.3541 11.3253 61.4038 11.0377 61.8578 10.7419C61.6804 11.087 61.2832 11.3582 61.1484 11.8759C62.3331 12.336 62.0706 11.4732 63 10.0106C62.0068 9.912 60.8291 10.5036 61.0207 11.6704Z" fill="#ADBB15"/>
<path fill-rule="evenodd" clip-rule="evenodd" d="M56.6919 4.96151C56.6919 4.665 56.2626 4.05678 56.1279 3.84391C56.408 4.08246 56.6364 4.36607 56.8013 4.68021L56.9444 4.83226C57.023 4.59778 57.0181 4.34695 56.9306 4.11508C56.843 3.88322 56.6771 3.68201 56.4562 3.53979C56.0654 3.19783 55.5441 3.00458 55 3C55.7492 4.06439 55.2273 5.22761 56.6919 4.96151Z" fill="#ADBB15"/>
<path fill-rule="evenodd" clip-rule="evenodd" d="M59.1207 10.1182C59.3411 10.4191 59.5416 10.7762 59.7175 11.1808C59.5299 10.7745 59.2983 10.4634 59.0412 10.2723C58.8382 11.4484 59.439 11.489 59.6817 11.6674C59.821 11.7648 59.8926 11.9108 60 12C59.9602 10.0776 59.1406 9.7856 59.1207 10.1182Z" fill="#ADBB15"/>
<path fill-rule="evenodd" clip-rule="evenodd" d="M54.5616 8C54.6054 7.5302 54.6054 7.05286 54.5616 6.58306L54.5989 6.70033C54.6844 7.09621 54.7204 7.5143 54.7048 7.9316C55.3275 7.37459 54.8854 5.57655 54.1195 5C54.2191 6.2899 53.5653 7.66775 54.5616 8Z" fill="#ADBB15"/>
<path fill-rule="evenodd" clip-rule="evenodd" d="M49 7.61555C49.3432 7.86345 49.6559 8.22616 49.9211 8.68371C49.9966 8.80941 50.0879 8.90177 50.1876 8.95324C50.2872 9.00472 50.3923 9.01384 50.4944 8.97987C50.5964 8.9459 50.6924 8.8698 50.7746 8.75778C50.8567 8.64577 50.9227 8.50103 50.9671 8.3354C50.7237 8.18446 50.3092 7.83615 50.0395 7.63877C50.3744 7.69154 50.7004 7.85707 51 8.12641C50.8816 6.96537 50.0658 6.83765 49.5132 7.13952L49 7.61555Z" fill="#ADBB15"/>
<path fill-rule="evenodd" clip-rule="evenodd" d="M48 11.0719C48.3059 11.2507 48.5701 11.4671 48.7814 11.7121C48.8283 11.7882 48.9 11.8541 48.9896 11.9037C49.0792 11.9533 49.1839 11.985 49.294 11.9958C49.404 12.0067 49.516 11.9963 49.6193 11.9656C49.7227 11.935 49.8142 11.8851 49.8853 11.8206C49.6526 11.5849 49.3442 11.3981 48.9892 11.2781C49.4695 11.354 49.7061 11.6036 50 11.7121C49.9642 11.0122 48.8674 10.8983 48 11.0719Z" fill="#ADBB15"/>
<path fill-rule="evenodd" clip-rule="evenodd" d="M53.1312 16C53.4284 14.9613 54.0876 15.357 53.9903 14.3536C53.6997 14.483 53.4567 14.7503 53.3095 15.1026C53.4446 14.6221 53.7742 14.396 53.8876 14.2193C53.1528 13.336 52.7854 15.364 53.1312 16Z" fill="#ADBB15"/>
<path fill-rule="evenodd" clip-rule="evenodd" d="M53.3387 12.9791C53.4253 12.6676 53.4621 12.3424 53.4477 12.0174C53.5195 12.3403 53.5195 12.6771 53.4477 13C54.0885 12.9303 54.0885 12.4704 53.8642 11.892C53.6636 11.5225 53.3789 11.2153 53.0375 11C53.0995 11.3569 53.0995 11.7232 53.0375 12.0801C52.967 12.5401 52.9606 12.8258 53.3387 12.9791Z" fill="#ADBB15"/>
<path fill-rule="evenodd" clip-rule="evenodd" d="M53.5875 10C53.5875 9.47552 53.5108 9.12587 53.5108 8.74126C53.5108 8.74126 53.6921 9.70629 53.72 9.97203C54.278 9.61538 53.9642 8.45455 53.1132 8C53.2038 8.88112 52.5691 9.86713 53.5875 10Z" fill="#ADBB15"/>
<path fill-rule="evenodd" clip-rule="evenodd" d="M60 8.40438L61.188 8.34879C60.7854 8.34824 60.3868 8.42145 60.015 8.56417C60.3459 9.50907 61.1955 8.63365 62 8.56417C61.9023 8.39743 62 8.4947 61.8196 8.36269L61.6015 8.22373C61.0601 7.93193 60.2256 7.86245 60 8.40438Z" fill="#ADBB15"/>
<path fill-rule="evenodd" clip-rule="evenodd" d="M53.8249 5.9908C53.8249 5.83026 53.7116 5.71558 53.6523 5.55962L53.7979 5.71099C53.8427 5.77459 53.8789 5.8423 53.9057 5.91282C53.9057 5.91282 53.9812 5.91282 53.9974 5.74769C54.0405 5.4266 53.5445 5.06422 53 5C53.1003 5.21855 53.1779 5.44419 53.2318 5.6743C53.3073 5.93576 53.4583 6.03209 53.8249 5.9908Z" fill="#ADBB15"/>
<path fill-rule="evenodd" clip-rule="evenodd" d="M50.0792 14C50.282 13.8316 50.3073 13.7495 50.5672 13.6345C50.827 13.5195 51.0615 13.499 50.9855 13.1992C50.7953 13.1992 50.7003 13.269 50.5355 13.3306C50.6267 13.2418 50.7454 13.1663 50.8841 13.1089C50.1362 12.7023 49.8447 13.5318 50.0792 14Z" fill="#ADBB15"/>
<path fill-rule="evenodd" clip-rule="evenodd" d="M50 11C50.3416 10.7506 50.726 10.5691 51.133 10.4651C51.6946 10.354 52 10.3338 52 9.66768C51.6236 9.6991 51.2561 9.80177 50.9163 9.97048C51.2171 9.75822 51.55 9.59796 51.9015 9.4961C51.6158 8.51705 50.2365 8.97125 50 11Z" fill="#ADBB15"/>
<path fill-rule="evenodd" clip-rule="evenodd" d="M57.0454 12.942L57.4483 12.442C57.3264 12.6185 57.2388 12.8063 57.188 13C57.9504 13 57.7025 12.7054 58 12C57.4669 12.0714 56.8222 12.4554 57.0454 12.942Z" fill="#ADBB15"/>
<path fill-rule="evenodd" clip-rule="evenodd" d="M56.1827 10.9615C56.2253 10.918 56.4741 10.4829 56.5025 10.4307L56.2893 10.9963C57.1848 11.0529 56.8579 10.4481 57 10C56.5593 10.0827 55.5999 10.6657 56.1827 10.9615Z" fill="#ADBB15"/>
<path fill-rule="evenodd" clip-rule="evenodd" d="M57.1835 14.1273L57.3303 14.1823C57.5797 14.2345 57.8155 14.3182 58.0275 14.4296C57.6974 14.3342 57.3519 14.2718 57 14.2441C57.055 15.11 57.9174 14.8145 59 15C58.9066 14.6989 58.6803 14.4301 58.3578 14.2372C58.1376 14.0998 57.5138 13.8455 57.1835 14.1273Z" fill="#ADBB15"/>
<path fill-rule="evenodd" clip-rule="evenodd" d="M49 9.8698C49.1784 9.80501 49.3629 9.82622 49.5356 9.93138C49.7406 10.0469 49.8787 10.0392 49.954 9.73124C49.8256 9.59921 49.6825 9.52286 49.5356 9.508L50 9.56958C49.9498 8.44569 49.1674 9.22317 49 9.8698Z" fill="#ADBB15"/>
<path fill-rule="evenodd" clip-rule="evenodd" d="M54.802 4.98176C54.8891 4.82584 54.7274 4.66991 54.6031 4.46778C54.7274 4.57751 54.8331 4.76231 54.9512 4.86626C55.1067 4.62371 54.8518 4.34651 54.7274 4.24833C54.5168 4.10034 54.2636 4.01389 54 4C54.3171 4.69878 54.2984 5.09149 54.802 4.98176Z" fill="#ADBB15"/>
<path fill-rule="evenodd" clip-rule="evenodd" d="M52.5777 15C52.5983 14.6704 52.6755 14.3485 52.8052 14.0521C53.2349 13.1043 52.8558 12.8673 52.603 13.455C52.5416 13.613 52.4964 13.7784 52.4682 13.9479C52.476 13.6184 52.5479 13.2949 52.6788 13C51.634 13.0853 51.9542 14.3555 52.5777 15Z" fill="#ADBB15"/>
<path fill-rule="evenodd" clip-rule="evenodd" d="M59 9.51893C59.1667 9.41979 59.3389 9.3518 59.5137 9.31608C59.3317 9.3422 59.1593 9.47086 59.0219 9.68314C59.2514 10.4076 59.5683 9.68314 59.7541 9.53824C59.9399 9.39335 59.918 9.40301 60 9.31608C59.7049 9.01663 59.1366 8.70753 59 9.51893Z" fill="#ADBB15"/>
<path fill-rule="evenodd" clip-rule="evenodd" d="M57.7138 7L57.5604 6.47482C57.6137 6.51799 57.5604 6.47482 57.6404 6.56115L57.7805 6.82014C57.8606 6.95683 57.7805 6.8705 57.8806 6.94245C58.2742 6.38849 57.6204 6.02878 57 6C57.0189 6.04876 57.0436 6.0947 57.0734 6.13669C57.5137 6.84892 57.2668 6.97842 57.7138 7Z" fill="#ADBB15"/>
<path fill-rule="evenodd" clip-rule="evenodd" d="M57.4996 5H57.6142C58.2216 4.88957 58.084 4.30061 57.3964 4C56.9609 4.51534 56.7432 4.86503 57.4996 5Z" fill="#ADBB15"/>
<path fill-rule="evenodd" clip-rule="evenodd" d="M52.2008 11C52.4572 10.8334 52.3341 10.7739 52.775 10.5002C52.8775 10.4287 53.0416 10.3633 52.9903 10.2264C52.939 10.0896 52.857 10.1372 52.6007 10.2264C52.734 10.1074 52.9288 10.0182 52.5289 10.0003C52.4251 9.99746 52.3227 10.0146 52.2374 10.049C52.1521 10.0835 52.0888 10.1333 52.0573 10.1907C51.9466 10.4622 51.9972 10.7473 52.2008 11Z" fill="#ADBB15"/>
<path fill-rule="evenodd" clip-rule="evenodd" d="M58 11.5152L58.396 11.3434C58.2148 11.5037 58.1812 11.4007 58.0268 11.6983C58.1544 12.0074 58.302 12.1219 58.5503 11.8357C58.691 11.6484 58.8416 11.4836 59 11.3434C59 11.2748 59 11.3434 58.9329 11.1946C58.8862 11.1475 58.8367 11.1091 58.7852 11.0801C58.685 11.0294 58.5811 11.0024 58.4765 11C58.1879 11 58.0872 11.1603 58 11.5152Z" fill="#ADBB15"/>
<path fill-rule="evenodd" clip-rule="evenodd" d="M61 12.4914L61.3377 12.3544C61.1854 12.5142 61.1324 12.4343 61.0199 12.7082C61.2715 13.2333 61.3709 12.9936 61.8676 12.4343C62 12.286 61.9272 12.4343 62 12.2403C61.649 12.0805 61.2053 11.6811 61 12.4914Z" fill="#ADBB15"/>
<path fill-rule="evenodd" clip-rule="evenodd" d="M52.1225 12.9214L52.3529 12.5857L52.2542 13C53.1536 12.9286 52.8355 12.5571 53 12C52.5284 12.0714 51.6838 12.5143 52.1225 12.9214Z" fill="#ADBB15"/>
<path fill-rule="evenodd" clip-rule="evenodd" d="M51.615 12C51.7901 11.8742 51.7317 11.8808 51.7609 11.6954C51.7609 11.6954 51.7609 11.8013 51.7609 11.8079C51.9652 12.0596 51.5274 11.6225 51.7609 11.894L51.8922 11.9801C52.0412 11.7974 52.0356 11.596 51.8765 11.415C51.7175 11.234 51.4164 11.0862 51.0312 11C51.2063 11.4967 50.5788 11.8808 51.615 12Z" fill="#ADBB15"/>
<path fill-rule="evenodd" clip-rule="evenodd" d="M56.7564 8L56.5641 7.45055L57 7.87912C57 7.2967 56.641 7.07692 56 7C56.2179 7.57143 56.0769 7.92308 56.7564 8Z" fill="#ADBB15"/>
<path d="M0 9.12067V7.23553L1.35439 7.27164V6.89606C1.35439 4.96999 2.237 4.00695 4.00221 4.00695C4.51351 3.97169 5.0251 4.0709 5.49204 4.29587C5.64562 4.37331 5.77512 4.49615 5.86516 4.64979C5.95519 4.80344 6.00197 4.98142 5.99994 5.1626C5.9806 5.52656 5.88082 5.88048 5.70874 6.19545C5.31854 5.98501 4.88637 5.87845 4.44916 5.88487C4.14887 5.85917 3.85015 5.95167 3.60944 6.14489C3.42222 6.38768 3.33005 6.69815 3.35211 7.01162V7.30776L5.4785 7.2572V9.14234L3.49432 9.09178V15H1.36116V9.09178L0 9.12067Z" fill="#ADBB15"/>
<path d="M13 14.8956H11.7643C11.0928 14.8956 10.6764 14.4872 10.5891 13.6776C10.3877 14.0137 10.1228 14.3013 9.81127 14.5219C9.49973 14.7425 9.14846 14.8913 8.77993 14.9587C8.4114 15.0262 8.03373 15.0108 7.67109 14.9136C7.30845 14.8163 6.96884 14.6394 6.67398 14.3941C6.45073 14.1962 6.27379 13.9455 6.15722 13.662C6.04064 13.3784 5.98764 13.0697 6.00242 12.7605C6.00242 11.0266 7.18436 10.1596 9.54822 10.1596H10.5824C10.5985 9.97152 10.5775 9.78193 10.5209 9.60301C10.4642 9.42409 10.3731 9.25979 10.2534 9.12068C9.95373 8.89048 9.58722 8.7813 9.21916 8.81259C8.40831 8.79242 7.60974 9.0266 6.92245 9.48609C6.69928 9.1575 6.58364 8.75969 6.59339 8.35403C6.58174 8.19543 6.61055 8.03642 6.67677 7.89387C6.74298 7.75133 6.84412 7.63056 6.96946 7.54439C7.72576 7.14631 8.56496 6.96132 9.4072 7.00702C10.2788 6.95084 11.14 7.23336 11.8315 7.80233C12.1241 8.09041 12.353 8.44428 12.5016 8.83833C12.6503 9.23239 12.715 9.65677 12.6911 10.0808V13.0686C12.6372 13.6962 12.744 14.3277 13 14.8956ZM8.76922 13.2907C9.11714 13.2926 9.46063 13.2074 9.77206 13.0419C10.0835 12.8764 10.3541 12.6352 10.5623 12.3377V11.4851H9.57508C8.5006 11.4851 7.94993 11.8434 7.94993 12.5455C7.94598 12.6507 7.96518 12.7554 8.006 12.8512C8.04682 12.947 8.10811 13.0313 8.18497 13.0972C8.35119 13.2354 8.5589 13.3041 8.76922 13.2907Z" fill="#ADBB15"/>
<path d="M16.2605 8.48236C16.4886 8.06898 16.8086 7.71642 17.1946 7.45326C17.5943 7.16113 18.0726 7.00304 18.5638 7.00074C18.9348 6.98902 19.2974 7.11617 19.5835 7.35837C19.7253 7.48876 19.8363 7.65051 19.908 7.83136C19.9796 8.0122 20.0101 8.20738 19.9971 8.40207C19.9964 8.88185 19.8917 9.35549 19.6904 9.78881C19.2753 9.40554 18.7301 9.20382 18.1716 9.22682C17.8027 9.22537 17.4384 9.31086 17.107 9.47666C16.7756 9.64246 16.486 9.88413 16.2605 10.1829V15H14V7.13942H14.9127C15.0944 7.12153 15.2778 7.1414 15.4518 7.19784C15.6258 7.25427 15.7869 7.34612 15.9253 7.46785C16.1353 7.76325 16.2522 8.11717 16.2605 8.48236Z" fill="#ADBB15"/>
<path d="M29.7362 13.6469V9.9899C29.7362 9.2585 29.4261 8.88549 28.8275 8.88549C28.4692 8.88311 28.1208 9.00433 27.8394 9.22925C27.5496 9.44121 27.3044 9.70977 27.1182 10.0192V14.9561H24.8681V10.0192C24.8681 9.28776 24.558 8.91474 23.9522 8.91474C23.5965 8.91459 23.251 9.03566 22.9713 9.2585C22.679 9.46766 22.4333 9.73678 22.2501 10.0484V14.9854H20V7.14475H20.8799C21.2423 7.1053 21.6054 7.21313 21.8895 7.44463C22.1176 7.70904 22.2499 8.04446 22.2646 8.39545C22.5406 7.953 22.9264 7.59179 23.3833 7.34793C23.8402 7.10407 24.3522 6.98609 24.8681 7.00579C25.3368 6.96966 25.8029 7.10351 26.1833 7.38348C26.5637 7.66345 26.8337 8.07134 26.9451 8.53442C27.2173 8.06812 27.6052 7.6823 28.0702 7.41537C28.5545 7.14013 29.1017 6.99888 29.6569 7.00579C29.9822 6.9871 30.3074 7.04317 30.6084 7.16982C30.9094 7.29647 31.1782 7.49041 31.3949 7.73719C31.8288 8.33682 32.0407 9.07217 31.9935 9.81437V15H31.1353C30.1978 14.9854 29.7362 14.5319 29.7362 13.6469Z" fill="#ADBB15"/>
<path d="M33.0834 13.9284C32.7139 13.5353 32.4283 13.0738 32.2432 12.571C32.0581 12.0682 31.9773 11.5342 32.0055 11.0004C31.9777 10.4666 32.0587 9.93266 32.2437 9.42991C32.4288 8.92716 32.7143 8.46564 33.0834 8.07234C33.4818 7.70178 33.954 7.41597 34.4704 7.23285C34.9868 7.04974 35.5362 6.97327 36.0842 7.00825C36.8318 6.97882 37.5771 7.10793 38.2692 7.38675C38.4584 7.45916 38.6244 7.58 38.7499 7.73669C38.837 7.92991 38.8792 8.13967 38.8737 8.35086C38.8679 8.76677 38.7552 9.17453 38.5459 9.53635C37.8831 9.11386 37.1078 8.89274 36.3172 8.90075C35.0281 8.90075 34.3799 9.6149 34.3799 11.0004C34.3476 11.5589 34.5295 12.1091 34.8897 12.5429C35.0862 12.74 35.3243 12.8926 35.5872 12.99C35.8501 13.0875 36.1316 13.1274 36.4119 13.1071C37.2202 13.0945 38.0063 12.8459 38.6698 12.393C38.879 12.7548 38.9918 13.1625 38.9975 13.5784C39.0119 13.7828 38.9637 13.9867 38.8591 14.164C38.739 14.3269 38.5786 14.4572 38.393 14.5425C37.711 14.8587 36.9619 15.0105 36.208 14.9853C35.6408 15.0331 35.0696 14.9638 34.5314 14.7817C33.9932 14.5997 33.4999 14.309 33.0834 13.9284Z" fill="#293737"/>
<path d="M42.2809 8.48236C42.5076 8.0709 42.8237 7.71873 43.2046 7.45326C43.6028 7.16113 44.0795 7.00304 44.5689 7.00074C44.9386 6.98902 45.2999 7.11617 45.5849 7.35837C45.7263 7.48876 45.8369 7.65051 45.9083 7.83136C45.9797 8.0122 46.0101 8.20738 45.9971 8.40207C45.9964 8.88185 45.8921 9.35549 45.6915 9.78881C45.2779 9.40554 44.7347 9.20382 44.178 9.22682C43.8115 9.22538 43.4496 9.31092 43.1205 9.47677C42.7914 9.64261 42.5041 9.88428 42.2809 10.1829V15H40V7.13942H40.9095C41.0895 7.12082 41.2713 7.14037 41.4436 7.19687C41.616 7.25336 41.7752 7.3456 41.9114 7.46785C42.1362 7.75718 42.2656 8.11248 42.2809 8.48236Z" fill="#293737"/>
<path d="M71.0874 11.6194L70.1633 15H67.0597L65 7H67.5323L68.2377 10.1866C68.4891 11.1915 68.6358 12.2225 68.675 13.2612H68.7526C68.8548 12.17 69.0604 11.0925 69.3662 10.0448L70.2903 7H72.7168L73.6196 10.0448C73.8815 11.0999 74.0631 12.1754 74.1628 13.2612H74.2051C74.2388 12.2114 74.3639 11.1672 74.5789 10.1418L75.4677 7H78L75.7569 15H72.8931L71.9761 11.6194L71.5741 8.94776C71.4696 9.84901 71.307 10.7416 71.0874 11.6194Z" fill="#293737"/>
<path d="M83.4077 11.7565V9.8932C83.2562 9.60219 83.0337 9.3552 82.7612 9.1757C82.4887 8.9962 82.1754 8.89016 81.8509 8.86767C81.6347 8.86146 81.4199 8.90657 81.224 8.99937C81.0281 9.09218 80.8564 9.2301 80.7226 9.4021C80.4047 9.85586 80.2532 10.4075 80.2941 10.9621C80.2577 11.5108 80.4007 12.0564 80.7012 12.5148C80.8303 12.6911 80.9998 12.8331 81.195 12.9287C81.3903 13.0243 81.6055 13.0706 81.8224 13.0637C82.1695 13.0572 82.5013 12.9179 82.7507 12.6737C83.0309 12.4179 83.2547 12.1054 83.4077 11.7565ZM85.6358 5.33608V13.0204C85.5948 13.649 85.7206 14.2773 86 14.8403H84.5717C83.8576 14.8403 83.4149 14.4287 83.322 13.6053C83.125 14.0271 82.8122 14.3827 82.421 14.6298C82.0298 14.8769 81.5766 15.0052 81.1154 14.9992C80.6824 15.0096 80.253 14.9178 79.8612 14.731C79.4695 14.5442 79.1263 14.2676 78.8587 13.9231C78.2434 13.0607 77.943 12.009 78.0089 10.9476C77.9439 9.87739 78.2494 8.81766 78.873 7.95047C79.15 7.61155 79.4998 7.34104 79.8959 7.15957C80.2919 6.97809 80.7236 6.89043 81.1582 6.90327C81.619 6.88987 82.0742 7.00747 82.4722 7.24271C82.8204 7.45939 83.1177 7.7502 83.3435 8.09491V4H84.2432C85.1716 4 85.6358 4.44777 85.6358 5.32164V5.33608Z" fill="#293737"/>
<path d="M93.9914 7V13.8608C94.0258 14.4169 93.9567 14.9749 93.7884 15.5014C93.6201 16.0279 93.356 16.5122 93.0118 16.9253C92.6374 17.2907 92.2005 17.5722 91.7259 17.7537C91.2513 17.9352 90.7485 18.0131 90.2462 17.9831C89.4891 18.053 88.7285 17.9056 88.0403 17.5556C87.8736 17.4418 87.7365 17.2836 87.642 17.0959C87.5476 16.9082 87.4988 16.6973 87.5005 16.4834C87.4782 16.0287 87.5929 15.5785 87.8271 15.2011C88.4097 15.7675 89.1718 16.0662 89.9529 16.0342C90.4606 16.0753 90.966 15.9271 91.3857 15.614C91.5607 15.4275 91.6942 15.2 91.7762 14.9489C91.8582 14.6979 91.8865 14.4298 91.8589 14.1651V13.4406C91.6098 13.8623 91.2664 14.2084 90.8609 14.4466C90.4553 14.6848 90.0007 14.8073 89.5398 14.8026C89.191 14.826 88.842 14.7632 88.5188 14.6189C88.1956 14.4746 87.9067 14.2525 87.6738 13.9695C87.1905 13.2656 86.9541 12.3972 87.0074 11.5207V7H87.8537C88.7201 7 89.1466 7.44918 89.1466 8.33304V11.2672C89.1466 12.2742 89.4998 12.7813 90.2328 12.7813C90.5658 12.7962 90.8957 12.7064 91.1829 12.5227C91.4702 12.3389 91.7025 12.069 91.8522 11.7453V7H93.9914Z" fill="#293737"/>
</svg>
